<svg xmlns="http://www.w3.org/2000/svg" xmlns:xlink="http://www.w3.org/1999/xlink" width="921" height="249" viewBox="0 0 307 83">
  <metadata><?xpacket begin="﻿" id="W5M0MpCehiHzreSzNTczkc9d"?>
<x:xmpmeta xmlns:x="adobe:ns:meta/" x:xmptk="Adobe XMP Core 5.6-c138 79.159824, 2016/09/14-01:09:01        ">
   <rdf:RDF xmlns:rdf="http://www.w3.org/1999/02/22-rdf-syntax-ns#">
      <rdf:Description rdf:about=""/>
   </rdf:RDF>
</x:xmpmeta>
                                                                                                    
                                                                                                    
                                                                                                    
                                                                                                    
                                                                                                    
                                                                                                    
                                                                                                    
                                                                                                    
                                                                                                    
                                                                                                    
                                                                                                    
                                                                                                    
                                                                                                    
                                                                                                    
                                                                                                    
                                                                                                    
                                                                                                    
                                                                                                    
                                                                                                    
                                                                                                    
                           
<?xpacket end="w"?></metadata>
<defs>
    <style>
      .cls-1 {
        fill: #fff;
        fill-rule: evenodd;
        filter: url(#filter);
      }
    </style>
    <filter id="filter" x="0" y="0" width="307" height="83" filterUnits="userSpaceOnUse">
      <feFlood result="flood"/>
      <feComposite result="composite" operator="in" in2="SourceGraphic"/>
      <feBlend result="blend" in2="SourceGraphic"/>
    </filter>
  </defs>
  <path id="シェイプ_1" data-name="シェイプ 1" class="cls-1" d="M79.736,69.141l-0.261.747,4.389,9.738,0.266-.817Zm-8.178-1.447,3.373,11.864h0.048l0.288-.863-3.131-11H71.558m4.549-.268-2.6.34a12.1,12.1,0,0,0,.222,1.879c0.162,0.824.331,1.56,0.513,2.208l0.872,3c0.2,0.685.44,1.413,0.734,2.168,0.558-1.186,1.006-2.192,1.339-3l1.563-3.887A28.712,28.712,0,0,0,79.762,67.2h0.176c0.08,0.176.223,0.545,0.433,1.1s0.42,1.048.6,1.484l2.2,4.817c0.346,0.767.768,1.652,1.285,2.638,0.189-.488.486-1.405,0.9-2.722l1.029-3.677a15.665,15.665,0,0,0,.382-1.55c0.091-.562.176-1.083,0.224-1.561l-2.631-.306v-0.1h5.33v0.1l-1.617.324c-0.2.46-.394,0.971-0.582,1.509s-0.372,1.119-.555,1.777l-1.607,5.572c-0.259.94-.5,1.8-0.725,2.6-0.207.8-.353,1.4-0.425,1.77H84.027c-0.062-.164-0.143-0.415-0.259-0.721s-0.2-.545-0.279-0.726c-0.064-.177-0.157-0.393-0.256-0.647-0.121-.262-0.228-0.506-0.348-0.762l-2.529-5.656c-0.513-1.073-.851-1.76-1-2.033a9.312,9.312,0,0,0-.55,1.13c-0.24.567-.382,0.907-0.414,1.027L76.255,77.84c-0.148.357-.274,0.685-0.379,1-0.121.3-.237,0.624-0.365,0.97s-0.261.732-.406,1.169H74.947c-0.1-.6-0.381-1.726-0.831-3.341L72.4,71.59a33.507,33.507,0,0,0-1.341-3.84l-1.579-.324v-0.1h6.629v0.1M92.63,67.694V80.289h0.654V67.694H92.63Zm-2.764-.268v-0.1h9.7l0.232,2.843h-0.15l-0.65-2.236c-0.51-.033-1.094-0.051-1.735-0.051a13.056,13.056,0,0,0-2.822.244,26.322,26.322,0,0,0-.194,3.359c0,0.795.041,1.437,0.079,1.928,0.965,0.046,1.571.08,1.832,0.08a18.387,18.387,0,0,0,2.114-.118l0.406-1.539h0.157v3.87H98.674l-0.422-1.639a15.181,15.181,0,0,0-1.749-.084,21.535,21.535,0,0,0-2.18.1,14.333,14.333,0,0,0-.079,2.059c0.012,0.876.041,1.584,0.051,2.146a14.363,14.363,0,0,0,.109,1.452,10.34,10.34,0,0,0,2.9.335A14.891,14.891,0,0,0,99.048,80l0.728-2.2h0.13l-0.2,2.83H89.895v-0.1l2.177-.29A9.2,9.2,0,0,0,92.2,79.1c0.041-.5.075-1.084,0.1-1.713,0.041-.63.058-1.151,0.07-1.59s0.017-.793.017-1.123V72.386c0-.289-0.01-0.709-0.024-1.242s-0.053-1.089-.084-1.668-0.085-1.153-.155-1.726l-2.256-.324m16.875,0.13v0.092a10.8,10.8,0,0,1,2.37.226,6.765,6.765,0,0,1,1.754.619,5.006,5.006,0,0,1,1.233.907,5.852,5.852,0,0,1,.922,1.232,6.27,6.27,0,0,1,.606,1.548,7.2,7.2,0,0,1,.215,1.81,6.481,6.481,0,0,1-.891,3.547,5.685,5.685,0,0,1-2.244,2.092,5.551,5.551,0,0,1-2.5.683h-0.694v0.08H108.2a6.531,6.531,0,0,0,3.421-.859,5.813,5.813,0,0,0,2.2-2.331,6.9,6.9,0,0,0,.742-3.178,6.8,6.8,0,0,0-.532-2.717,6.36,6.36,0,0,0-1.331-1.982c-1.146-1.174-2.948-1.769-5.412-1.769h-0.546Zm-1.722,4.323v5.311a21.148,21.148,0,0,0,.128,2.355,4.419,4.419,0,0,0,1.321.4,7.864,7.864,0,0,0,1.459.13,5.554,5.554,0,0,0,2.011-.385,5.747,5.747,0,0,0,1.782-1.129A5.355,5.355,0,0,0,113,76.636a6.883,6.883,0,0,0,.488-2.667,6.654,6.654,0,0,0-.519-2.729,5.017,5.017,0,0,0-1.4-1.907,5.733,5.733,0,0,0-2.042-1.086A7.83,7.83,0,0,0,107.1,67.9a7.175,7.175,0,0,0-1.853.217c-0.039.239-.068,0.567-0.109,0.993s-0.056.919-.082,1.5-0.036,1.006-.036,1.276m-1.576-4.185V80.267h0.647V67.694h-0.647M100.7,67.33h7.478a9.421,9.421,0,0,1,3.556.608,6.157,6.157,0,0,1,2.321,1.577,6.079,6.079,0,0,1,1.221,2.117,7.8,7.8,0,0,1,.362,2.332,7.212,7.212,0,0,1-.478,2.649,6.121,6.121,0,0,1-3.475,3.525,7.184,7.184,0,0,1-2.677.492h-8.361v-0.1l2.2-.323a20.481,20.481,0,0,0,.245-2.553q0.09-1.772.091-2.792V72.482a41.653,41.653,0,0,0-.239-4.716l-2.247-.323V67.33m22.154,0.227v0.092a10.751,10.751,0,0,1,2.366.226,6.663,6.663,0,0,1,1.761.619,5.224,5.224,0,0,1,1.23.907,5.768,5.768,0,0,1,.918,1.232,6.986,6.986,0,0,1,.621,1.548,7.858,7.858,0,0,1,.213,1.81,6.485,6.485,0,0,1-.909,3.547,5.881,5.881,0,0,1-4.752,2.775h-0.684v0.08h0.7a6.555,6.555,0,0,0,3.428-.859,5.837,5.837,0,0,0,2.189-2.331,6.9,6.9,0,0,0,.746-3.178,6.762,6.762,0,0,0-.531-2.717,6.269,6.269,0,0,0-1.336-1.982c-1.143-1.174-2.945-1.769-5.407-1.769H122.85Zm-1.72,4.323v5.311a22.41,22.41,0,0,0,.126,2.355,4.428,4.428,0,0,0,1.307.4,8.107,8.107,0,0,0,1.476.13,5.438,5.438,0,0,0,2-.385,5.882,5.882,0,0,0,1.8-1.129,5.49,5.49,0,0,0,1.27-1.929,7.056,7.056,0,0,0,.481-2.667,6.59,6.59,0,0,0-.517-2.729,4.983,4.983,0,0,0-1.4-1.907,5.806,5.806,0,0,0-2.039-1.086,7.89,7.89,0,0,0-2.428-.352,7.225,7.225,0,0,0-1.858.217c-0.034.239-.07,0.567-0.1,0.993s-0.053.919-.087,1.5c-0.019.579-.027,1.006-0.027,1.276m-1.575-4.185V80.267H120.2V67.694h-0.643M116.8,67.33h7.475a9.467,9.467,0,0,1,3.559.608,6.329,6.329,0,0,1,2.331,1.577,6.2,6.2,0,0,1,1.208,2.117,7.5,7.5,0,0,1,.369,2.332,7.189,7.189,0,0,1-.468,2.649,6.182,6.182,0,0,1-3.489,3.525,7.134,7.134,0,0,1-2.669.492h-8.376v-0.1l2.218-.323a19.282,19.282,0,0,0,.239-2.553c0.063-1.181.092-2.113,0.092-2.792V72.482a42.681,42.681,0,0,0-.235-4.716l-2.254-.323V67.33m18.861,0.365V80.267H136.3V67.694h-0.641Zm4.1,12.935h-6.872v-0.1l2.219-.335c0.095-.742.177-1.668,0.223-2.729s0.082-2.11.082-3.132V72.805a38.444,38.444,0,0,0-.268-5.055l-2.256-.311V67.33h6.872v0.109l-2.27.311c-0.059.578-.108,1.119-0.146,1.584-0.031.487-.047,1.049-0.077,1.735-0.021.671-.036,1.3-0.036,1.895v2c0,0.379.015,0.981,0.046,1.815s0.054,1.538.1,2.126,0.09,1.017.125,1.312l2.253,0.306v0.1M142.7,67.665l10.984,12.188V79L143.447,67.665H142.7Zm-2.713-.226V67.33h4.569c0.309,0.421.691,0.919,1.177,1.5s0.913,1.08,1.29,1.5l4.082,4.5c0.537,0.6.965,1.044,1.259,1.362s0.694,0.717,1.172,1.174c0.029-.408.051-0.8,0.075-1.174s0.017-.7.017-1.022V71.262a26,26,0,0,0-.2-3.5l-2.213-.328V67.33h5.416v0.109l-2.217.352a24.109,24.109,0,0,0-.177,3.245v9.941h-0.084c-0.933-1.169-1.853-2.264-2.771-3.291l-5.564-6.209c-0.824-.873-1.532-1.569-2.109-2.1a20.909,20.909,0,0,0-.128,2.314v5.748a25.176,25.176,0,0,0,.179,2.751l2.314,0.347v0.09h-5.516V80.54l2.235-.318a14.819,14.819,0,0,0,.161-1.861c0.033-.806.046-1.531,0.046-2.156V71.762c0-.521-0.013-1.056-0.033-1.564s-0.046-1.027-.095-1.534l-1.208-.9-1.674-.328m28.526,8.447v3.547l0.618-.227v-3.32H168.51Zm-2.626-8.431V67.393c-0.417-.022-0.783-0.063-1.11-0.063a7.248,7.248,0,0,0-2.718.516,6.364,6.364,0,0,0-2.155,1.43,6.447,6.447,0,0,0-1.393,2.192,7.209,7.209,0,0,0-.5,2.706,5.99,5.99,0,0,0,.844,3.132,6.085,6.085,0,0,0,2.434,2.31,7.766,7.766,0,0,0,3.734.847,8.715,8.715,0,0,0,1.087-.075V80.313a9.406,9.406,0,0,1-3.434-.552,5.822,5.822,0,0,1-2.316-1.51,6.017,6.017,0,0,1-1.279-2.076,6.776,6.776,0,0,1-.4-2.269,7.323,7.323,0,0,1,.452-2.583,5.852,5.852,0,0,1,1.317-2.049,6.075,6.075,0,0,1,2.171-1.338,8.49,8.49,0,0,1,2.95-.482h0.315m5.889,8.147-1.451.347a15.83,15.83,0,0,0-.187,1.694c-0.046.694-.067,1.307-0.067,1.857-0.706.272-1.269,0.495-1.706,0.619a10.725,10.725,0,0,1-1.57.4,10.382,10.382,0,0,1-1.991.171,8.28,8.28,0,0,1-3.155-.562,6.361,6.361,0,0,1-2.257-1.5,6.063,6.063,0,0,1-1.306-2.11,6.455,6.455,0,0,1-.433-2.339,7.544,7.544,0,0,1,.471-2.65,6.966,6.966,0,0,1,1.394-2.257,6.643,6.643,0,0,1,2.254-1.566,7.725,7.725,0,0,1,3-.557c0.181,0,.312.007,0.414,0.012s0.23,0.012.381,0.017,0.353,0.024.6,0.029c0.745,0.051,1.449.067,2.112,0.067a11.641,11.641,0,0,0,1.489-.062l0.132,3.035h-0.132L169.2,68.215c-0.235-.051-0.524-0.131-0.867-0.181a10.119,10.119,0,0,0-1.172-.164,11.653,11.653,0,0,0-1.4-.079,6.783,6.783,0,0,0-2.774.516,4.938,4.938,0,0,0-1.887,1.371,5.348,5.348,0,0,0-1.046,1.924,7.026,7.026,0,0,0-.331,2.138,6.094,6.094,0,0,0,.461,2.355,5.9,5.9,0,0,0,1.3,1.954,6.144,6.144,0,0,0,4.343,1.8,6.635,6.635,0,0,0,.673-0.041c0.231-.026.471-0.055,0.709-0.09,0.256-.041.532-0.079,0.842-0.138a6.922,6.922,0,0,0,.2-1.7,7.371,7.371,0,0,0-.2-1.951l-2.342-.33V75.489h6.066V75.6m11.86-8.227h-0.285a4.381,4.381,0,0,0-1.845.391,3.348,3.348,0,0,0-1.344,1.14,2.962,2.962,0,0,0-.5,1.659,3.039,3.039,0,0,0,1.015,2.143,9.117,9.117,0,0,0,.838.722c0.251,0.192.642,0.452,1.167,0.821,0.519,0.352.939,0.642,1.254,0.868a5.118,5.118,0,0,1,.764.653,2.428,2.428,0,0,1,.436,3.137,2.789,2.789,0,0,1-1.091,1.04,3.252,3.252,0,0,1-1.67.415v0.1a3.914,3.914,0,0,0,1.972-.393,3.3,3.3,0,0,0,1.331-1.117,2.669,2.669,0,0,0,.454-1.437,3.167,3.167,0,0,0-.21-1.166,3.206,3.206,0,0,0-.756-1.081,8.8,8.8,0,0,0-1.146-.885c-0.548-.378-1.109-0.755-1.681-1.14a13.059,13.059,0,0,1-1.225-.948,2.865,2.865,0,0,1-.964-2.071,2.535,2.535,0,0,1,.875-1.849,3.7,3.7,0,0,1,2.606-.919v-0.08Zm-4.44,10.088,0.693,2.231a5.864,5.864,0,0,0,1.211.373,5.228,5.228,0,0,0,1.21.137,3.368,3.368,0,0,0,1.239-.227,2.827,2.827,0,0,0,.933-0.608,2.5,2.5,0,0,0,.556-0.829,2.221,2.221,0,0,0,.185-0.889,2.066,2.066,0,0,0-.61-1.5,13.827,13.827,0,0,0-2.04-1.576,16.487,16.487,0,0,1-2.082-1.611,4.8,4.8,0,0,1-.824-1.152,2.853,2.853,0,0,1-.273-1.287,3.1,3.1,0,0,1,.428-1.543,3.548,3.548,0,0,1,1.311-1.29,4.413,4.413,0,0,1,2.2-.516,12.28,12.28,0,0,1,1.249.075c0.455,0.046.757,0.062,0.921,0.062,0.138-.012.273-0.012,0.408-0.016a1.875,1.875,0,0,0,.3-0.025c0.076,0,.148-0.01.24-0.022l0.048,3.086H186.4l-0.58-2.083a5.551,5.551,0,0,0-2.2-.554,3.184,3.184,0,0,0-1.394.294,2.262,2.262,0,0,0-.979.812,1.992,1.992,0,0,0-.336,1.158,1.863,1.863,0,0,0,.467,1.22,5.958,5.958,0,0,0,1.256,1.094c0.541,0.352,1.119.737,1.73,1.135a9.333,9.333,0,0,1,1.481,1.158,3.4,3.4,0,0,1,1.077,2.49A3.832,3.832,0,0,1,186.5,78.7a3.617,3.617,0,0,1-1.4,1.437,5.047,5.047,0,0,1-2.571.579c-0.37,0-.819-0.013-1.348-0.063s-0.925-.045-1.164-0.045h-0.274c-0.074,0-.161.012-0.3,0.028a1.659,1.659,0,0,1-.226.017l-0.148-3.189h0.126M194.517,69l4.689,11.269h0.6L194.8,68.248Zm-0.179.766c-0.164.316-.374,0.781-0.637,1.4s-0.5,1.2-.727,1.741-0.443,1.119-.682,1.72-0.387,1-.462,1.2c0.358,0.046.769,0.085,1.236,0.1,0.487,0.017.932,0.029,1.362,0.029a21.278,21.278,0,0,0,2.587-.131c-0.227-.675-0.6-1.663-1.162-2.912s-1.06-2.315-1.515-3.142m0.991-2.56,3.918,9.39a34.558,34.558,0,0,0,1.774,3.626l1.5,0.306v0.1h-6.4v-0.1l2.466-.306a12.253,12.253,0,0,0-1.314-3.778h-5.7c-0.233.606-.432,1.105-0.579,1.493s-0.288.8-.418,1.224a7.076,7.076,0,0,0-.269,1.061l2.366,0.306v0.1H187.6v-0.1l1.684-.306A18.477,18.477,0,0,0,190.4,77.9L194.612,67.2h0.717m10.118,0.46,10.98,12.188V79L206.193,67.665h-0.746Zm-2.716-.226V67.33h4.578q0.45,0.631,1.17,1.5c0.488,0.59.908,1.08,1.29,1.5l4.083,4.5c0.534,0.6.959,1.044,1.263,1.362s0.686,0.717,1.165,1.174c0.038-.408.055-0.8,0.08-1.174,0-.356,0-0.7,0-1.022V71.262a23.756,23.756,0,0,0-.205-3.5l-2.211-.328V67.33h5.42v0.109l-2.216.352a25.679,25.679,0,0,0-.164,3.245v9.941h-0.094q-1.392-1.754-2.764-3.291l-5.578-6.209c-0.822-.873-1.518-1.569-2.1-2.1a20.869,20.869,0,0,0-.125,2.314v5.748a23.681,23.681,0,0,0,.176,2.751l2.314,0.347v0.09H203.3V80.54l2.235-.318a14.014,14.014,0,0,0,.158-1.861c0.026-.806.038-1.531,0.038-2.156V71.762c0-.521,0-1.056-0.022-1.564s-0.048-1.027-.091-1.534l-1.223-.9-1.665-.328m26.36-.063h-1.06a7.719,7.719,0,0,0-2.907.521,6.39,6.39,0,0,0-2.227,1.438,6.522,6.522,0,0,0-1.4,2.143,7.08,7.08,0,0,0-.476,2.606A6.071,6.071,0,0,0,221.5,76.5a6.411,6.411,0,0,0,1.45,2.072,6.856,6.856,0,0,0,2.276,1.4,8.419,8.419,0,0,0,2.938.495c0.487,0,.8,0,0.924-0.008V80.374a8.816,8.816,0,0,1-3.215-.488,5.945,5.945,0,0,1-3.7-3.512,6.425,6.425,0,0,1-.453-2.354,7.226,7.226,0,0,1,.4-2.344,6.478,6.478,0,0,1,1.2-2.095,5.7,5.7,0,0,1,2.1-1.514,7.483,7.483,0,0,1,3.037-.562h0.632V67.376Zm4.115,10.787-1.356,2.49c-0.579-.041-1-0.045-1.26-0.045-0.319,0-.754,0-1.3.045s-0.972.063-1.269,0.063a9.021,9.021,0,0,1-3.256-.552,6.61,6.61,0,0,1-2.327-1.543,6.254,6.254,0,0,1-1.363-2.127,6.4,6.4,0,0,1-.444-2.355,7.5,7.5,0,0,1,.512-2.818,6.384,6.384,0,0,1,1.478-2.226,6.7,6.7,0,0,1,2.237-1.425,7.266,7.266,0,0,1,2.738-.5,2.691,2.691,0,0,1,.473.018c0.065,0,.215.007,0.443,0.012s0.453,0.021.681,0.046c0.819,0.046,1.449.062,1.87,0.062a16.7,16.7,0,0,0,1.915-.062l0.107,3.006h-0.107l-0.615-2.013a9.808,9.808,0,0,0-.969-0.182,12.766,12.766,0,0,0-1.346-.186,11.476,11.476,0,0,0-1.372-.079,6.538,6.538,0,0,0-3.207.747,4.794,4.794,0,0,0-2,2.124,7.087,7.087,0,0,0-.677,3.165,6.539,6.539,0,0,0,.483,2.547,5.636,5.636,0,0,0,1.349,2,6.168,6.168,0,0,0,1.964,1.249,6.547,6.547,0,0,0,2.328.42,6.308,6.308,0,0,0,2.286-.415,4.425,4.425,0,0,0,1.9-1.509l0.109,0.041M239.848,67.7v12.59h0.6V67.7h-0.6Zm-3.929-.352h7.9c0.478,0,.918-0.018,1.318-0.039s0.914-.079,1.542-0.138l0.21,2.935h-0.109L246.1,67.96a10.707,10.707,0,0,0-1.727-.142,10.338,10.338,0,0,0-1.409.079,11.482,11.482,0,0,0-1.372.28c-0.044.555-.08,1.1-0.109,1.628s-0.038,1.01-.051,1.458-0.024.738-.024,0.9v3.014c0,0.809.037,1.69,0.087,2.671s0.119,1.776.2,2.355l2.247,0.335v0.1h-6.866v-0.1l2.208-.335a36.188,36.188,0,0,0,.273-4.858V72.055c0-.675-0.009-1.35-0.038-2s-0.08-1.3-.155-1.879a7.1,7.1,0,0,0-1.227-.239c-0.467-.051-0.906-0.092-1.325-0.1a12.582,12.582,0,0,0-1.958.156L234.2,70.156h-0.118l0.193-2.956a6.342,6.342,0,0,1,.795.08,5.975,5.975,0,0,0,.85.067M255.93,80.415v0.113a6.3,6.3,0,0,0,1.848-.347,3.342,3.342,0,0,0,1.295-.8,3.155,3.155,0,0,0,.768-1.29,5.626,5.626,0,0,0,.248-1.786V67.694h-0.634v8.59a4.568,4.568,0,0,1-.833,2.876A3.821,3.821,0,0,1,255.93,80.415Zm-1.188.113V80.415a6.133,6.133,0,0,1-2.237-.524,3.392,3.392,0,0,1-1.5-1.3,3.936,3.936,0,0,1-.546-2.123V67.694h-0.648v9.1A3.278,3.278,0,0,0,251,79.45a6.3,6.3,0,0,0,3.747,1.078m-5.185-3.744V71.732c0-1.14-.079-2.467-0.217-4l-1.9-.306v-0.1h6.629v0.1l-2.394.306c-0.058.432-.111,0.935-0.143,1.526s-0.06,1.232-.1,1.89c-0.021.688-.031,1.215-0.031,1.635V76.5a3.89,3.89,0,0,0,.529,2.151,2.969,2.969,0,0,0,1.428,1.158,5.8,5.8,0,0,0,1.95.325,4.1,4.1,0,0,0,2.857-.921,3.86,3.86,0,0,0,1.049-2.994v-3.9c0-.675-0.028-1.5-0.074-2.445s-0.11-1.663-.187-2.146l-2.38-.306v-0.1h6.591v0.1l-1.851.306a14.617,14.617,0,0,0-.2,1.963c-0.046.909-.063,1.685-0.063,2.306v4.407a5.5,5.5,0,0,1-.244,1.744,3.132,3.132,0,0,1-.763,1.232A5.457,5.457,0,0,1,259.3,80a5.611,5.611,0,0,1-1,.424,9.129,9.129,0,0,1-1.305.255c-0.471.041-1.055,0.079-1.764,0.079a10.287,10.287,0,0,1-2.969-.38,4,4,0,0,1-1.993-1.271,3.552,3.552,0,0,1-.715-2.319M270.361,69l4.68,11.269h0.613l-5.01-12.019Zm-0.172.766c-0.162.316-.387,0.781-0.648,1.4s-0.512,1.2-.722,1.741-0.449,1.119-.676,1.72-0.391,1-.471,1.2c0.35,0.046.773,0.085,1.249,0.1s0.923,0.029,1.353.029a21.464,21.464,0,0,0,2.594-.131c-0.234-.675-0.625-1.663-1.172-2.912s-1.055-2.315-1.507-3.142m0.979-2.56,3.923,9.39a33.65,33.65,0,0,0,1.779,3.626l1.5,0.306v0.1h-6.39v-0.1l2.444-.306a10.275,10.275,0,0,0-.5-1.953,10.481,10.481,0,0,0-.811-1.826h-5.7c-0.247.606-.432,1.105-0.575,1.493s-0.287.8-.428,1.224a6.646,6.646,0,0,0-.253,1.061l2.357,0.306v0.1h-5.075v-0.1l1.681-.306a18.076,18.076,0,0,0,1.124-2.326l4.21-10.691h0.711m15.072,8.347,1.973,2.871a6.8,6.8,0,0,0,1.267,1.447,2.119,2.119,0,0,0,1.31.444V80.222a4.627,4.627,0,0,1-1.85-1.849L287.366,76.1a6.915,6.915,0,0,0-.954-1.135,2.477,2.477,0,0,0-1.1-.508l-0.028.072A3.51,3.51,0,0,1,286.24,75.552Zm-2.36-8.011v0.079a3.891,3.891,0,0,1,2.088.6,3.563,3.563,0,0,1,1.222,1.42,4.024,4.024,0,0,1,.38,1.661,2.739,2.739,0,0,1-1.581,2.616l0.051,0.038a2.745,2.745,0,0,0,1.536-1,2.9,2.9,0,0,0,.614-1.856,3.4,3.4,0,0,0-.335-1.51,3.182,3.182,0,0,0-.882-1.116,4.421,4.421,0,0,0-1.252-.7,4.123,4.123,0,0,0-1.4-.226H283.88m-0.906,3.529v1.48c0,0.524.023,1.027,0.056,1.476a6.467,6.467,0,0,0,1.027.058,3.985,3.985,0,0,0,1.877-.4,2.422,2.422,0,0,0,1.017-1.056,3.109,3.109,0,0,0,.3-1.389,3.2,3.2,0,0,0-.3-1.4,3.35,3.35,0,0,0-.762-1.073,3.562,3.562,0,0,0-1.038-.692,3.22,3.22,0,0,0-1.138-.234,3.457,3.457,0,0,0-.824.08c-0.056.34-.1,0.851-0.152,1.5-0.034.658-.066,1.21-0.066,1.646M281.4,67.687V80.267h0.65V67.687H281.4m-0.225,7.525V72.4c0-.726-0.028-1.559-0.072-2.474-0.046-.93-0.114-1.663-0.181-2.2l-2.177-.293V67.33H284.7a4.7,4.7,0,0,1,2.713.692,3.689,3.689,0,0,1,1.405,1.538,3.755,3.755,0,0,1,.388,1.48,3.066,3.066,0,0,1-.393,1.55,2.909,2.909,0,0,1-1.026,1.066,3.065,3.065,0,0,1-1.285.482v0.018a3.115,3.115,0,0,1,1.025.665,5.883,5.883,0,0,1,.723.9c0.279,0.379.647,0.9,1.1,1.572s0.811,1.184,1.075,1.56a8.6,8.6,0,0,0,.759.919,2.22,2.22,0,0,0,1.51.755v0.1h-1.583a2.81,2.81,0,0,1-2.109-.8,5.938,5.938,0,0,1-.615-0.738c-0.207-.285-0.515-0.75-0.97-1.391-0.427-.642-0.8-1.169-1.108-1.589a11.011,11.011,0,0,0-.706-0.9,2.263,2.263,0,0,0-.715-0.511,2.492,2.492,0,0,0-.949-0.13,4.685,4.685,0,0,0-.9.058A10.188,10.188,0,0,0,283,75.722v1.69a22.246,22.246,0,0,0,.224,2.809l2.264,0.306v0.1h-6.743v-0.1l2.136-.306c0.087-.619.161-1.48,0.217-2.587,0.046-1.124.077-1.913,0.077-2.424m16.661,5.056h0.608v-5.68l-4.31-6.922h-0.674l4.376,7v5.605Zm-4.9-12.535-1.843-.293V67.33h7.079v0.109l-2.723.293a29.832,29.832,0,0,0,1.715,3.14c0.744,1.183,1.4,2.16,1.986,2.909a29.926,29.926,0,0,0,2.256-2.963,30.8,30.8,0,0,0,1.928-3.086l-2.662-.293V67.33h5.293v0.126l-1.566.277c-0.354.432-.707,0.868-1.031,1.305s-0.761,1.05-1.3,1.8-0.932,1.352-1.241,1.8-0.759,1.147-1.36,2.071c-0.046.75-.08,1.579-0.08,2.5a13.226,13.226,0,0,0,.283,3.019l2.259,0.306v0.1h-6.9v-0.1l2.228-.306a13.053,13.053,0,0,0,.229-1.567c0.048-.659.09-1.28,0.09-1.861,0-.437-0.03-1.122-0.068-2.047-0.348-.646-0.8-1.4-1.336-2.28s-1.1-1.748-1.677-2.6c-0.575-.834-1.1-1.555-1.563-2.134M85.66,35.886V36.05a10.818,10.818,0,0,1,3.667,1.4,7.916,7.916,0,0,1,2.744,2.8,8.733,8.733,0,0,1,.177,7.908A6.705,6.705,0,0,1,89.468,51a9.418,9.418,0,0,1-4.82,1.116v0.2a4.6,4.6,0,0,0,1.319.13,9.611,9.611,0,0,0,4.811-1.135,7.468,7.468,0,0,0,3-2.961,8.037,8.037,0,0,0,.995-3.9,8.986,8.986,0,0,0-1.046-4.368,7.565,7.565,0,0,0-3.11-3A11.17,11.17,0,0,0,85.66,35.886Zm-2.486-15.1v0.118a9.185,9.185,0,0,1,4.146,1,5.967,5.967,0,0,1,2.559,2.515,7.673,7.673,0,0,1,.853,3.669,7.531,7.531,0,0,1-.752,3.445,6.314,6.314,0,0,1-1.909,2.327,7,7,0,0,1-2.411,1.162v0.244A7.311,7.311,0,0,0,90.494,32.8a7.216,7.216,0,0,0,1.745-4.853,7.782,7.782,0,0,0-.575-3.091,6.119,6.119,0,0,0-1.633-2.3A7,7,0,0,0,87.6,21.117a9.07,9.07,0,0,0-3.1-.482,10.526,10.526,0,0,0-1.321.154m-0.6.622a9.229,9.229,0,0,0-2.588.272,54.246,54.246,0,0,0-.575,8.455,43.146,43.146,0,0,0,.143,4.578,7.517,7.517,0,0,0,2.667.4,9.106,9.106,0,0,0,3.969-.822,6.414,6.414,0,0,0,2.759-2.406,7.31,7.31,0,0,0,1-3.939,7.113,7.113,0,0,0-.757-3.279,5.566,5.566,0,0,0-2.42-2.377,8.942,8.942,0,0,0-4.2-.88m0.046,14.883a10.132,10.132,0,0,0-3.066.318,52.98,52.98,0,0,0-.177,5.316c0,2.917.1,5.7,0.315,8.393a10.574,10.574,0,0,0,2.29.981,10.175,10.175,0,0,0,2.515.265,9.752,9.752,0,0,0,4.139-.815,6.264,6.264,0,0,0,2.754-2.439,7.538,7.538,0,0,0,.99-3.978,7.348,7.348,0,0,0-4.46-7,12.434,12.434,0,0,0-5.3-1.044M75.51,21.015V51.982H77.1V21.015H75.51M68.444,52.6l5.6-.8a48.221,48.221,0,0,0,.6-6.276c0.143-2.968.218-5.271,0.218-6.929V31.409q0-3.039-.154-5.811t-0.426-4.406l-5.793-.717V20.244H85.08a11.909,11.909,0,0,1,5.668,1.14,6.712,6.712,0,0,1,2.94,2.86,7.931,7.931,0,0,1,.855,3.59,6.668,6.668,0,0,1-2.26,5.353,9.345,9.345,0,0,1-5.477,2.256v0.092a13.638,13.638,0,0,1,5.687,1.379,8.992,8.992,0,0,1,3.554,3.154,7.705,7.705,0,0,1,1.2,4.129,8.839,8.839,0,0,1-.927,3.836,7.912,7.912,0,0,1-3.378,3.382,12.973,12.973,0,0,1-6.547,1.418H68.444V52.6m37.493-31.565V51.994h1.582V21.037h-1.582Zm-6.753-.562V20.244H116.06v0.231l-5.526.733c-0.2,1.451-.367,3.387-0.507,5.844s-0.184,4.583-.184,6.416v9.6c0,2.3.121,4.709,0.346,7.212a27.392,27.392,0,0,0,11.49.976,15.283,15.283,0,0,0,2.317-.42l2.324-6.088h0.322L125.6,52.833H99.133V52.6l5.323-.721a23.485,23.485,0,0,0,.463-3.831c0.128-1.82.228-3.715,0.3-5.656,0.082-1.957.115-3.337,0.115-4.13v-5.63c0-1.238-.028-2.65-0.087-4.255s-0.128-3-.213-4.206a28.615,28.615,0,0,0-.327-2.965l-5.52-.733m45.287,3.854L155.978,51.96h1.5L145.186,22.45Zm-0.411,1.84c-0.4.793-.92,1.946-1.583,3.464s-1.241,2.922-1.768,4.255c-0.536,1.307-1.084,2.712-1.669,4.211-0.563,1.493-.96,2.474-1.142,2.95a30.127,30.127,0,0,0,3.053.246c1.155,0.043,2.273.06,3.31,0.06a53.762,53.762,0,0,0,6.373-.306c-0.57-1.679-1.519-4.055-2.875-7.161q-2.026-4.629-3.7-7.72m2.4-6.237,9.625,23a81.01,81.01,0,0,0,4.356,8.9l3.686,0.778v0.232H148.45V52.6l6.015-.778a27.124,27.124,0,0,0-1.239-4.781,27.815,27.815,0,0,0-1.983-4.489H137.269c-0.587,1.487-1.07,2.724-1.416,3.677s-0.706,1.97-1.031,3a17.071,17.071,0,0,0-.648,2.592l5.789,0.778v0.232H127.516V52.6l4.117-.778a45.715,45.715,0,0,0,2.756-5.678L144.71,19.931h1.754M171.3,21.037l26.933,29.9v-2.1l-25.1-27.8H171.3Zm-6.653-.562V20.244h11.207q1.116,1.506,2.9,3.648c1.176,1.418,2.234,2.638,3.154,3.665L191.91,38.644c1.32,1.435,2.354,2.534,3.091,3.325s1.689,1.741,2.874,2.876c0.08-1.022.143-1.975,0.164-2.871s0.046-1.719.046-2.508v-9.6a57.952,57.952,0,0,0-.512-8.564l-5.423-.822V20.244h13.287v0.231l-5.409.868a60.181,60.181,0,0,0-.435,7.966V53.7h-0.218q-3.42-4.321-6.776-8.1L178.937,30.4c-2.042-2.149-3.76-3.874-5.193-5.133a54.321,54.321,0,0,0-.308,5.656v14.1a59.884,59.884,0,0,0,.451,6.742l5.668,0.829v0.232h-13.52V52.6l5.475-.778a33,33,0,0,0,.384-4.566c0.08-1.97.117-3.718,0.117-5.261V31.1c0-1.3-.023-2.589-0.069-3.836-0.048-1.271-.118-2.532-0.231-3.78l-2.984-2.167-4.085-.84m64.651-.159h-2.6a19.367,19.367,0,0,0-7.127,1.283,15.417,15.417,0,0,0-8.915,8.805,17.168,17.168,0,0,0-1.179,6.379,15.013,15.013,0,0,0,4.767,10.978,16.588,16.588,0,0,0,5.554,3.445,20.153,20.153,0,0,0,7.223,1.237c1.192,0,1.95-.025,2.275-0.046V52.192a21.832,21.832,0,0,1-7.9-1.162,15.248,15.248,0,0,1-5.707-3.513,14.72,14.72,0,0,1-3.36-5.123,15.852,15.852,0,0,1-1.1-5.793,17.478,17.478,0,0,1,.961-5.7,15.682,15.682,0,0,1,2.943-5.14,14.192,14.192,0,0,1,5.158-3.723,18.316,18.316,0,0,1,7.456-1.4h1.556V20.316Zm10.069,26.475-3.3,6.121c-1.428-.1-2.457-0.159-3.089-0.159-0.8,0-1.864.058-3.2,0.159s-2.377.154-3.122,0.154a21.517,21.517,0,0,1-7.97-1.384,16.215,16.215,0,0,1-5.724-3.746,16.071,16.071,0,0,1-4.435-11.023,18.177,18.177,0,0,1,1.29-6.929,15.615,15.615,0,0,1,3.621-5.434,15.983,15.983,0,0,1,5.473-3.5,18.538,18.538,0,0,1,6.7-1.208c0.621,0,1.017,0,1.179.018s0.522,0.021,1.065.055,1.111,0.054,1.677.087c2.006,0.114,3.539.16,4.617,0.16A39.456,39.456,0,0,0,238.8,20l0.269,7.4H238.8l-1.5-4.966c-0.45-.114-1.228-0.249-2.356-0.442s-2.233-.347-3.318-0.465a30.278,30.278,0,0,0-3.376-.18,15.89,15.89,0,0,0-7.86,1.832,11.909,11.909,0,0,0-4.916,5.213,17.545,17.545,0,0,0-1.643,7.756,16.248,16.248,0,0,0,1.177,6.271,13.919,13.919,0,0,0,3.3,4.88,14.514,14.514,0,0,0,4.827,3.057,15.843,15.843,0,0,0,5.722,1.045,15.12,15.12,0,0,0,5.587-1.011,10.8,10.8,0,0,0,4.668-3.687l0.244,0.085m33.55-25.714V51.96H274.5V21.078h-1.588Zm-25.836.027V51.96h1.588V21.1h-1.588m-5.844-.861h16.244v0.231l-5.889.773a33.273,33.273,0,0,0-.416,4.323c-0.119,2.054-.169,3.814-0.169,5.248,0,1.254.043,2.792,0.13,4.624a56.979,56.979,0,0,0,9.773.62c2.15,0,4.165-.041,6.054-0.142a50.705,50.705,0,0,0,5.18-.478c0.109-1.447.176-3.17,0.176-5.178,0-1.182-.036-2.378-0.1-3.564-0.07-1.21-.138-2.167-0.211-2.888s-0.176-1.6-.313-2.6l-5.909-.733V20.244h16.234v0.231l-4.549.733a37.451,37.451,0,0,0-.527,5.555c-0.109,2.6-.166,5.112-0.166,7.564v7.467a53.636,53.636,0,0,0,.693,10.029l4.59,0.778v0.232H265.781V52.6l5.8-.778a61.7,61.7,0,0,0,.739-8.294c0.03-.772.03-1.714,0-2.821s-0.1-2.252-.176-3.459H251.086Q251,38.915,251,42.49c0,1.4.043,3.047,0.147,4.914a27.309,27.309,0,0,0,.5,4.419l5.822,0.778v0.232H241.188V52.6l4.5-.778c0.1-.588.214-1.649,0.334-3.194,0.118-1.52.21-3.256,0.3-5.192,0.07-1.907.106-3.522,0.106-4.834V30.387c0-.232-0.021-1.02-0.072-2.344-0.034-1.326-.121-2.642-0.234-3.959a27.736,27.736,0,0,0-.346-2.876l-4.544-.733V20.244m47.93,0.861V51.994h1.58V21.1h-1.58Zm-6.765-.642V20.244h23.78l0.558,6.968h-0.359l-1.6-5.482c-1.276-.1-2.691-0.142-4.265-0.142a32.367,32.367,0,0,0-6.931.6,66.9,66.9,0,0,0-.446,8.255c0,1.929.06,3.5,0.178,4.7,2.344,0.139,3.844.2,4.481,0.2a50.151,50.151,0,0,0,5.2-.278l1-3.785h0.379v9.48h-0.379l-1.041-4a38.286,38.286,0,0,0-4.287-.215,47.619,47.619,0,0,0-5.351.255,31.725,31.725,0,0,0-.178,5.073c0.026,2.1.06,3.846,0.108,5.237,0.049,1.363.131,2.553,0.246,3.551a24.884,24.884,0,0,0,7.14.817,37.474,37.474,0,0,0,4.279-.2l1.785-5.366H307l-0.493,6.922H282.452V52.6l5.336-.733c0.115-.612.214-1.531,0.318-2.779s0.179-2.65.253-4.215c0.076-1.546.126-2.833,0.156-3.889s0.05-1.967.05-2.755V32.607c0-.711-0.029-1.718-0.068-3.042s-0.12-2.679-.2-4.092c-0.092-1.4-.225-2.814-0.379-4.226l-5.519-.784M28.82,78.247s0,0,0,0,0,0.018,0,.029a0.433,0.433,0,0,1-.046.1,0.469,0.469,0,0,1-.051.138c-0.023.108-.048,0.222-0.074,0.339s-0.039.218-.062,0.324-0.034.221-.034,0.323-0.017.216-.017,0.313a1.583,1.583,0,0,0,.007.177,1.261,1.261,0,0,1,.01.146,0.707,0.707,0,0,0,.024.172,1.058,1.058,0,0,0,.033.176,3.268,3.268,0,0,0,.182.526,5.232,5.232,0,0,0,.319.54,1.568,1.568,0,0,0,.4.4,0.6,0.6,0,0,0,.456.118A0.291,0.291,0,0,0,30.115,82a0.364,0.364,0,0,0,.141-0.138,0.808,0.808,0,0,0,.123-0.172,0.685,0.685,0,0,0,.084-0.175,0.291,0.291,0,0,0,.017-0.085,2.235,2.235,0,0,1,.032-0.2V81.119c0-.063,0-0.121,0-0.176s-0.015-.125-0.027-0.184a2.46,2.46,0,0,0-.084-0.441c-0.039-.138-0.092-0.277-0.143-0.419a4.083,4.083,0,0,0-.179-0.393,2.523,2.523,0,0,0-.227-0.345c-0.054-.074-0.116-0.141-0.182-0.226s-0.145-.147-0.224-0.221c-0.1-.075-0.187-0.155-0.285-0.227a3.25,3.25,0,0,0-.317-0.239H28.82m-0.916.119h-0.01a1.019,1.019,0,0,1-.145.074c-0.048.039-.1,0.051-0.145,0.08H27.592c0,0.012,0,.012,0,0.012a2.374,2.374,0,0,1-.217.21c-0.075.08-.162,0.152-0.235,0.219s-0.172.133-.246,0.188c-0.1.062-.177,0.121-0.266,0.171,0,0-.008,0-0.008,0a0.027,0.027,0,0,0-.01.024,1.7,1.7,0,0,0-.176.244,1.529,1.529,0,0,0-.159.265,1.749,1.749,0,0,0-.146.279c-0.036.1-.077,0.181-0.111,0.29-0.021.062-.036,0.113-0.056,0.181a0.909,0.909,0,0,0-.041.151c0,0.054-.017.1-0.021,0.15s-0.008.1-.008,0.146v0.063c0,0.009.008,0.038,0.008,0.05a0.691,0.691,0,0,0,.036.188,2.086,2.086,0,0,1,.087.2c0.036,0.056.077,0.108,0.12,0.164a0.326,0.326,0,0,0,.131.08,0.532,0.532,0,0,0,.471-0.017,1.9,1.9,0,0,0,.483-0.318,5.118,5.118,0,0,0,.413-0.47,2.752,2.752,0,0,0,.273-0.482,0.9,0.9,0,0,0,.056-0.138c0.015-.034.031-0.085,0.049-0.118V80.233a1.631,1.631,0,0,1-.02-0.2c0-.067,0-0.142,0-0.215s0-.18,0-0.267,0.018-.181.029-0.277,0.026-.172.041-0.256,0.034-.176.051-0.273V78.734a0.192,0.192,0,0,1-.066-0.039A0.527,0.527,0,0,0,28,78.638a0.19,0.19,0,0,1-.041-0.067c-0.017-.039-0.023-0.051-0.038-0.085,0-.007,0-0.012-0.008-0.041a0.069,0.069,0,0,0,0-.017c0-.01,0-0.021,0-0.034V78.366M27.445,77v0a0.161,0.161,0,0,1-.029-0.067,0.647,0.647,0,0,1-.043-0.08c-0.015,0-.015-0.023-0.02-0.028a0.038,0.038,0,0,1-.021-0.041,0.028,0.028,0,0,1-.029-0.023,0.031,0.031,0,0,1-.024-0.028,0.474,0.474,0,0,1-.087-0.1A0.51,0.51,0,0,1,27.1,76.5a0.721,0.721,0,0,1-.061-0.118,0.406,0.406,0,0,1-.028-0.143,0.121,0.121,0,0,1,0-.046,0.3,0.3,0,0,0,.01-0.038c0-.013,0-0.029,0-0.041a0.127,0.127,0,0,1,.013-0.039,0.057,0.057,0,0,1,.026-0.028v0c0-.008,0-0.008,0-0.008a0.79,0.79,0,0,1-.135-0.157c-0.041-.052-0.092-0.108-0.138-0.159s-0.072-.113-0.113-0.183a1.352,1.352,0,0,1-.1-0.169V75.359a0.038,0.038,0,0,0-.015,0c-0.067-.046-0.147-0.1-0.222-0.147s-0.159-.1-0.241-0.149c-0.082-.034-0.167-0.072-0.254-0.113s-0.171-.062-0.266-0.1c-0.067-.017-0.138-0.051-0.205-0.062s-0.125-.039-0.189-0.051-0.123-.01-0.186-0.01H24.841a0.546,0.546,0,0,0-.189.051,1.022,1.022,0,0,0-.2.079,1.036,1.036,0,0,0-.162.124,0.457,0.457,0,0,0-.094.125,0.553,0.553,0,0,0,.026.473,1.43,1.43,0,0,0,.319.475,3.926,3.926,0,0,0,.96.7c0.028,0,.046.022,0.074,0.027a0.1,0.1,0,0,1,.073.036h0.022c0.058-.02.1-0.02,0.159-0.036H26c0.059,0,.111,0,0.162,0s0.116,0,.167,0a1.279,1.279,0,0,1,.248.016c0.087,0.02.179,0.029,0.264,0.053a2.281,2.281,0,0,1,.3.072c0.1,0.018.194,0.059,0.292,0.08h0.007m2.23-1.027,0.017,0a0.847,0.847,0,0,1,.123-0.121c0.049-.038.092-0.077,0.138-0.118s0.087-.074.128-0.113,0.092-.062.133-0.092c0.07-.038.143-0.084,0.218-0.135,0.067-.034.142-0.075,0.215-0.113h0.021a0.612,0.612,0,0,1,.066-0.075,0.31,0.31,0,0,1,.067-0.1,1.658,1.658,0,0,0,.179-0.313,3.038,3.038,0,0,0,.161-0.362,3.77,3.77,0,0,0,.114-0.409,1.814,1.814,0,0,0,.05-0.391,0.748,0.748,0,0,0-.021-0.171,0.583,0.583,0,0,0-.041-0.181,0.622,0.622,0,0,0-.065-0.135C31.134,73.095,31.1,73.049,31.057,73c-0.046-.017-0.094-0.026-0.149-0.051a0.759,0.759,0,0,0-.194-0.017,0.689,0.689,0,0,0-.22.041,0.34,0.34,0,0,0-.171.062,0.249,0.249,0,0,0-.15.072,0.582,0.582,0,0,0-.148.1c-0.051.043-.1,0.1-0.148,0.139s-0.094.1-.138,0.149a1.507,1.507,0,0,0-.181.244,1.234,1.234,0,0,0-.159.243c-0.049.085-.1,0.172-0.136,0.257a1.376,1.376,0,0,0-.113.255l-0.012,0v0c0.012,0.064.017,0.109,0.028,0.167v0.306c0,0.056,0,.113,0,0.164a1.315,1.315,0,0,1-.012.21,2.087,2.087,0,0,1-.046.244c-0.01.074-.034,0.171-0.051,0.255a2.272,2.272,0,0,1-.075.243v0.024c0-.007.013-0.007,0.013-0.007a0.81,0.81,0,0,0,.1-0.06c0.021-.007.051-0.02,0.067-0.024a0.222,0.222,0,0,1,.046-0.017,0.612,0.612,0,0,1,.121-0.029,0.854,0.854,0,0,1,.161-0.022c0.051,0,.11,0,0.162,0h0.01m-0.1,1.022s0.012,0,.021.012a0.031,0.031,0,0,1,.026.01,1.329,1.329,0,0,1,.165.046c0.161,0.051.326,0.085,0.495,0.137s0.326,0.067.486,0.1c0.164,0.01.336,0.026,0.488,0.026a3.839,3.839,0,0,0,.515-0.026,3.9,3.9,0,0,0,.538-0.167,4.055,4.055,0,0,0,.556-0.282,1.685,1.685,0,0,0,.427-0.393A0.662,0.662,0,0,0,33.432,76a0.62,0.62,0,0,0-.067-0.138,0.714,0.714,0,0,0-.121-0.169c-0.055-.036-0.113-0.08-0.176-0.121a0.937,0.937,0,0,0-.169-0.084,1.1,1.1,0,0,0-.159-0.046,1,1,0,0,0-.184-0.029c-0.061,0-.128,0-0.2,0s-0.143,0-.213,0c-0.154.029-.294,0.051-0.445,0.075a3.147,3.147,0,0,0-.43.125,2.086,2.086,0,0,0-.405.164,2.065,2.065,0,0,0-.36.2,1.535,1.535,0,0,0-.131.087c-0.048.043-.1,0.089-0.145,0.13l-0.138.119c-0.056.057-.1,0.1-0.148,0.146a0.064,0.064,0,0,1-.012.034,0.075,0.075,0,0,1-.026.017c-0.013.029-.041,0.054-0.051,0.08a0.424,0.424,0,0,1-.056.07,0.668,0.668,0,0,1-.07.118,0.239,0.239,0,0,1-.079.1c-0.008.011-.018,0.033-0.024,0.041a0.337,0.337,0,0,1-.026.026,0.261,0.261,0,0,0-.018.046,0.019,0.019,0,0,0-.012.012M29.8,78.322h0c0.046,0.044.094,0.085,0.14,0.123s0.085,0.087.126,0.131,0.072,0.092.113,0.137,0.072,0.084.1,0.13a0.456,0.456,0,0,1,.1.147,1.532,1.532,0,0,1,.1.159,1.216,1.216,0,0,1,.092.159,1.706,1.706,0,0,0,.09.164v0.017h0l0.077,0.053a0.341,0.341,0,0,1,.079.051,2.194,2.194,0,0,0,.5.239,2.746,2.746,0,0,0,.6.164,1.36,1.36,0,0,0,.582,0,0.586,0.586,0,0,0,.408-0.239,0.372,0.372,0,0,0,.051-0.159,0.513,0.513,0,0,0,0-.193,1.045,1.045,0,0,0-.029-0.21,0.548,0.548,0,0,0-.074-0.176,0.582,0.582,0,0,0-.095-0.155,1.039,1.039,0,0,0-.111-0.13,0.678,0.678,0,0,0-.146-0.123,0.564,0.564,0,0,0-.171-0.15,1.269,1.269,0,0,0-.266-0.18,2.443,2.443,0,0,0-.3-0.176c-0.1-.046-0.212-0.092-0.314-0.136a2.423,2.423,0,0,0-.3-0.1,0.024,0.024,0,0,1-.014-0.012h-0.01c-0.067,0-.136,0-0.21-0.012a0.993,0.993,0,0,1-.2-0.029c-0.07,0-.146-0.022-0.211-0.022-0.067-.022-0.13-0.034-0.2-0.051h-0.2v0.017a0.114,0.114,0,0,1,.023.056,0.4,0.4,0,0,1,.013.092,0.239,0.239,0,0,1-.013.084,0.581,0.581,0,0,1-.031.087,0.916,0.916,0,0,1-.048.08,0.564,0.564,0,0,1-.051.067,0.276,0.276,0,0,0-.07.051,0.216,0.216,0,0,1-.089.017,0.258,0.258,0,0,1-.024.017c-0.015,0-.034.007-0.041,0.007h0M24.857,77v0c-0.067-.041-0.118-0.075-0.186-0.125s-0.126-.092-0.186-0.143a0.926,0.926,0,0,1-.192-0.169,1.409,1.409,0,0,1-.176-0.171,0.647,0.647,0,0,0-.075-0.084,0.219,0.219,0,0,0-.067-0.08,0.022,0.022,0,0,0,0-.017c0-.008-0.015-0.008-0.015-0.008a4.844,4.844,0,0,0-.512-0.26c-0.166-.079-0.35-0.164-0.532-0.248-0.176-.058-0.365-0.113-0.545-0.154s-0.353-.085-0.53-0.126c-0.123-.01-0.256-0.022-0.379-0.026-0.14-.013-0.273-0.013-0.413-0.013s-0.309.013-.453,0.017-0.32.038-.479,0.062c0,0,0,0-.019,0l0.017,0a2.54,2.54,0,0,1,.212.2,1.222,1.222,0,0,1,.174.2c0.044,0.058.08,0.13,0.128,0.193a1.306,1.306,0,0,1,.07.182,0.592,0.592,0,0,1,.024.152,0.451,0.451,0,0,1-.013.147c-0.009.034-.033,0.087-0.043,0.121a0.522,0.522,0,0,1-.087.123,0.243,0.243,0,0,0-.044.041,0.162,0.162,0,0,0-.05.046,0.209,0.209,0,0,0-.056.033l-0.049.021h0s0,0.008,0,.008c0.044,0.051.085,0.089,0.126,0.135a0.854,0.854,0,0,1,.123.137c0.046,0.051.084,0.1,0.118,0.141a1.3,1.3,0,0,1,.108.133,2.619,2.619,0,0,1,.174.253,1.621,1.621,0,0,1,.157.263c0.056,0.089.1,0.176,0.152,0.272a2.656,2.656,0,0,1,.137.282s0,0.012.008,0.012v0a1.9,1.9,0,0,0,.157.109c0.06,0.046.118,0.074,0.171,0.12,0.108,0.06.227,0.123,0.346,0.181a3.322,3.322,0,0,0,.444.192c0.162,0.068.329,0.131,0.5,0.188a4.908,4.908,0,0,0,.522.113h0.012c-0.026-.017-0.062-0.058-0.092-0.079a0.525,0.525,0,0,1-.069-0.092,0.62,0.62,0,0,1-.077-0.113,0.314,0.314,0,0,1-.064-0.114,0.932,0.932,0,0,1-.072-0.339,1.091,1.091,0,0,1,.041-0.359,2.379,2.379,0,0,1,.128-0.345,1.839,1.839,0,0,1,.157-0.234,1.045,1.045,0,0,1,.157-0.169c0.056-.058.113-0.1,0.181-0.154a1.771,1.771,0,0,1,.215-0.13c0.08-.039.157-0.092,0.236-0.136s0.157-.07.242-0.1a1.362,1.362,0,0,0,.229-0.1h0.01m-9,.244-0.007.007c-0.085.072-.159,0.142-0.249,0.215s-0.176.142-.256,0.2c-0.094.085-.191,0.135-0.287,0.21a1.363,1.363,0,0,1-.271.159,0.032,0.032,0,0,0-.015.023,0.043,0.043,0,0,1-.007.016,4.74,4.74,0,0,0-.307.414,3.791,3.791,0,0,0-.28.465,4.183,4.183,0,0,0-.246.495c-0.082.169-.15,0.341-0.212,0.5-0.041.13-.075,0.255-0.106,0.364s-0.056.226-.082,0.34c0,0.106-.018.215-0.023,0.324a2.118,2.118,0,0,0,0,.284,1.826,1.826,0,0,0,.082.374A2.034,2.034,0,0,0,13.77,82a1.064,1.064,0,0,0,.225.3,0.883,0.883,0,0,0,.264.193,0.9,0.9,0,0,0,.483.046,0.961,0.961,0,0,0,.45-0.113,2.3,2.3,0,0,0,.427-0.215c0.126-.08.24-0.188,0.363-0.285a3.94,3.94,0,0,0,.415-0.436,4.129,4.129,0,0,0,.353-0.449c0.1-.142.194-0.28,0.284-0.431,0.069-.119.133-0.256,0.2-0.374a1.715,1.715,0,0,1,.1-0.238c0.031-.1.063-0.164,0.082-0.239a0.032,0.032,0,0,0,0-.017v0c0-.07-0.015-0.121-0.024-0.183s-0.007-.126-0.007-0.181a0.62,0.62,0,0,1-.018-0.181c0-.062,0-0.126,0-0.171a3.687,3.687,0,0,1,.02-0.444c0.007-.136.026-0.278,0.033-0.413,0.024-.149.046-0.29,0.075-0.439,0.017-.123.051-0.277,0.074-0.408V77.3H17.557c-0.1.08-.2,0.142-0.3,0.216a2.952,2.952,0,0,1-.381.181,1.028,1.028,0,0,1-.41.1,0.659,0.659,0,0,1-.37-0.056,0.188,0.188,0,0,1-.079-0.046,0.379,0.379,0,0,1-.067-0.058,0.269,0.269,0,0,1-.046-0.072,0.553,0.553,0,0,1-.044-0.1c0-.012-0.007-0.028-0.007-0.046a0.481,0.481,0,0,0,0-.067c0-.017,0-0.041,0-0.058a0.173,0.173,0,0,1,.007-0.055V77.242m0.6-1.361h0a0.263,0.263,0,0,0-.063-0.036,0.211,0.211,0,0,0-.1-0.038,0.5,0.5,0,0,0-.11-0.034c-0.038,0-.079-0.023-0.108-0.028a1.1,1.1,0,0,1-.152-0.034,0.438,0.438,0,0,0-.142-0.039,1.65,1.65,0,0,1-.348-0.187,1.316,1.316,0,0,1-.259-0.222A0.67,0.67,0,0,1,15.039,75a0.526,0.526,0,0,1-.056-0.277V74.718l-0.007-.013a2.471,2.471,0,0,1-.3-0.043c-0.092-.013-0.194-0.013-0.3-0.024a4.117,4.117,0,0,0-.71.024,5,5,0,0,0-.747.123,7.133,7.133,0,0,0-.735.2,4.372,4.372,0,0,0-.713.29c-0.107.067-.217,0.113-0.331,0.185a3.28,3.28,0,0,0-.289.183,1.2,1.2,0,0,0-.251.215,1.18,1.18,0,0,0-.2.2,1.924,1.924,0,0,0-.2.316,1.777,1.777,0,0,0-.141.38,1.212,1.212,0,0,0-.06.381,0.784,0.784,0,0,0,.06.311,0.857,0.857,0,0,0,.3.374,1.147,1.147,0,0,0,.4.251,2.456,2.456,0,0,0,.466.131,2.078,2.078,0,0,0,.455.05,2.559,2.559,0,0,0,.6,0,5.381,5.381,0,0,0,.568-0.062,3.817,3.817,0,0,0,.514-0.118c0.136-.051.264-0.08,0.4-0.13a4.88,4.88,0,0,0,.79-0.381,6.291,6.291,0,0,0,.684-0.495,5.83,5.83,0,0,0,.619-0.562c0.194-.185.389-0.385,0.586-0.595a0.122,0.122,0,0,1,.024-0.027m0.4-1.94h0c-0.008,0-.008,0-0.008-0.008-0.041-.072-0.082-0.157-0.13-0.253s-0.075-.167-0.118-0.247c0,0-.01,0-0.01,0a0.022,0.022,0,0,0-.018-0.023c-0.154-.149-0.3-0.289-0.44-0.431-0.155-.159-0.294-0.314-0.434-0.478a5.637,5.637,0,0,1-.4-0.5,4.04,4.04,0,0,1-.333-0.524,0.027,0.027,0,0,1-.01-0.022,0.044,0.044,0,0,1-.018-0.017c-0.125-.1-0.256-0.172-0.386-0.26s-0.282-.172-0.42-0.239-0.3-.147-0.45-0.221c-0.154-.055-0.3-0.126-0.457-0.165a2.1,2.1,0,0,0-.363-0.12,2.385,2.385,0,0,0-.348-0.062,1.62,1.62,0,0,0-.307-0.039,2.883,2.883,0,0,0-.292,0c-0.123.024-.246,0.046-0.367,0.08a2.253,2.253,0,0,0-.364.171,1.129,1.129,0,0,0-.307.226,0.69,0.69,0,0,0-.181.268,0.805,0.805,0,0,0-.056.482,1.19,1.19,0,0,0,.106.454,2.013,2.013,0,0,0,.223.419c0.092,0.121.189,0.244,0.285,0.347a5.551,5.551,0,0,0,.427.432c0.141,0.118.3,0.243,0.454,0.349s0.289,0.193.442,0.285a1.782,1.782,0,0,0,.382.18,0.571,0.571,0,0,0,.164.07,0.568,0.568,0,0,0,.154.062H13.3a2.122,2.122,0,0,0,.276-0.036,1.736,1.736,0,0,0,.282-0.026h0.545a1.492,1.492,0,0,1,.212.026,1.32,1.32,0,0,1,.227.024,0.881,0.881,0,0,1,.233.038c0.074,0.013.159,0.024,0.235,0.041,0,0.01,0,.01.009,0.01a0.072,0.072,0,0,0,.013-0.017c0.046-.01.084-0.021,0.138-0.034a0.5,0.5,0,0,1,.161-0.017,0.452,0.452,0,0,1,.15.017c0.058,0,.1.013,0.147,0.017,0.107,0.008.208,0.017,0.31,0.017a1.15,1.15,0,0,0,.248-0.017,0.753,0.753,0,0,0,.192-0.079,0.445,0.445,0,0,0,.145-0.118,0.037,0.037,0,0,1,0-.018,0,0,0,0,0,0,0c0.01,0,.01-0.018.01-0.018s0.007-.007.015-0.028m1.739-.948V73c0,0.063.024,0.133,0.034,0.221a1.97,1.97,0,0,0,.021.227,0.206,0.206,0,0,1,.013.069,0.31,0.31,0,0,0,.014.044c0,0.012,0,.029.02,0.029a0.12,0.12,0,0,1,.013.028h0.067a0.329,0.329,0,0,0,.107-0.028A0.672,0.672,0,0,0,19,73.555a0.748,0.748,0,0,1,.1-0.058c0.066-.046.14-0.085,0.205-0.126s0.143-.072.21-0.113a1.164,1.164,0,0,0,.2-0.123h0a0.092,0.092,0,0,1,.018-0.012c0.1-.121.2-0.227,0.314-0.34,0.1-.1.208-0.2,0.314-0.3s0.2-.18.31-0.272A2.657,2.657,0,0,1,20.98,72l0.176-.116a0.743,0.743,0,0,0,.182-0.113,0.892,0.892,0,0,0,.192-0.1,1.919,1.919,0,0,0,.189-0.085h0.013a0.015,0.015,0,0,0,.009-0.012,1.432,1.432,0,0,1,.131-0.164c0.038-.067.087-0.113,0.133-0.18,0.079-.126.148-0.251,0.22-0.37a3.512,3.512,0,0,0,.235-0.465,4.269,4.269,0,0,0,.205-0.532,3.176,3.176,0,0,0,.149-0.586,2.047,2.047,0,0,0,.048-0.448,1.463,1.463,0,0,0-.017-0.475,1.239,1.239,0,0,0-.138-0.449,0.864,0.864,0,0,0-.307-0.377,1.211,1.211,0,0,0-.278-0.147,1.479,1.479,0,0,0-.382-0.01,1.811,1.811,0,0,0-.4.039,1.12,1.12,0,0,0-.358.118,0.959,0.959,0,0,0-.256.133c-0.092.072-.177,0.136-0.249,0.2-0.1.092-.184,0.159-0.263,0.239s-0.167.192-.249,0.277a3.352,3.352,0,0,0-.314.414,3.018,3.018,0,0,0-.284.436c-0.091.142-.166,0.29-0.251,0.454-0.067.142-.13,0.285-0.192,0.427,0,0.021-.008.021-0.008,0.021v0.024a2.335,2.335,0,0,1,.036.255c0,0.1.018,0.18,0.018,0.282s0,0.154,0,.262c0,0.077,0,.152,0,0.249,0,0.138-.018.267-0.029,0.4s-0.046.284-.072,0.431-0.07.311-.116,0.465a5.039,5.039,0,0,1-.148.483,0.067,0.067,0,0,0,0,.012m10.57,3.631v0.012c-0.033.044-.058,0.08-0.087,0.113a1.119,1.119,0,0,1-.043.119,0.836,0.836,0,0,0-.024.108,0.394,0.394,0,0,0-.01.089,0.508,0.508,0,0,0,.017.154,0.665,0.665,0,0,0,.061.142c0.024,0.046.054,0.085,0.087,0.136a0.71,0.71,0,0,1,.1.12h0a0.749,0.749,0,0,0-.164-0.033,0.92,0.92,0,0,0-.184-0.008,0.363,0.363,0,0,0-.179.041,0.5,0.5,0,0,0-.161.051,0.1,0.1,0,0,1-.051.034,0.208,0.208,0,0,1-.046.046,0.37,0.37,0,0,1-.044.051,0.1,0.1,0,0,1-.031.051l0,0.007V77.85a0.135,0.135,0,0,0-.02-0.056,0.161,0.161,0,0,0-.026-0.07,0.606,0.606,0,0,0-.041-0.06,0.286,0.286,0,0,1-.051-0.046,0.876,0.876,0,0,1-.087-0.069,1.018,1.018,0,0,0-.113-0.034,0.7,0.7,0,0,1-.107-0.039,0.862,0.862,0,0,1-.108-0.012H27.841a0.467,0.467,0,0,0,.041-0.034c0.012-.021.021-0.028,0.031-0.05s0.023-.024.029-0.034a0.234,0.234,0,0,0,.019-0.046,0.158,0.158,0,0,0,.021-0.051A0.409,0.409,0,0,0,28,77.2a0.458,0.458,0,0,0,0-.057,0.063,0.063,0,0,0,.008-0.046c0-.029-0.008-0.051-0.01-0.09a0.344,0.344,0,0,0-.015-0.079,0.329,0.329,0,0,1-.026-0.08,0.7,0.7,0,0,0-.036-0.087v0h0.015a0.271,0.271,0,0,0,.082.039,0.626,0.626,0,0,0,.091.053c0.022,0,.059.018,0.092,0.023a0.134,0.134,0,0,1,.068.011,0.436,0.436,0,0,0,.1.029,0.011,0.011,0,0,0,.01.009,0.264,0.264,0,0,0,.111,0,0.308,0.308,0,0,0,.143-0.038,0.59,0.59,0,0,0,.22-0.1,1.224,1.224,0,0,0,.3-0.147s0.017,0,.017,0m5.731-6.57c0-.024,0-0.024,0-0.024,0.058,0,.123-0.034.186-0.046s0.126-.043.2-0.06c0.2-.053.392-0.1,0.6-0.149s0.406-.08.614-0.1a3.888,3.888,0,0,1,.614-0.061c0.212-.019.41-0.028,0.608-0.028h0.029a0.033,0.033,0,0,0,0-.013c0.08-.243.159-0.487,0.222-0.733,0.08-.265.148-0.5,0.208-0.765l0.015-.012c-0.029,0-.036,0-0.044.012-0.251.072-.507,0.135-0.753,0.227a5.615,5.615,0,0,0-.727.3,4.692,4.692,0,0,0-.662.39,5.458,5.458,0,0,0-.666.567c-0.08.075-.155,0.154-0.23,0.221-0.068.085-.146,0.16-0.21,0.244,0,0,0,0,0,.024m-0.32-8.33,2.644-.855c0-.008,0-0.008,0-0.008a1.419,1.419,0,0,1-.108-0.169,1.16,1.16,0,0,1-.073-0.2,0.722,0.722,0,0,1-.058-0.21,2.1,2.1,0,0,1-.022-0.217,1.432,1.432,0,0,1,.1-0.538,1.667,1.667,0,0,1,.307-0.444,1.433,1.433,0,0,1,.439-0.289,1.229,1.229,0,0,1,.535-0.113c0.033,0,.046.012,0.068,0.012a0.257,0.257,0,0,1,.063,0h0.077a0.089,0.089,0,0,0,.056.012H38.61c0-.012-0.008-0.028-0.008-0.046-0.067-.378-0.138-0.759-0.222-1.128-0.087-.385-0.184-0.759-0.3-1.128s-0.244-.745-0.369-1.114c-0.143-.352-0.288-0.709-0.445-1.071a18.262,18.262,0,0,0-.955-1.794,21.906,21.906,0,0,0-1.241-1.857,24.291,24.291,0,0,0-1.532-1.95c-0.6-.7-1.217-1.374-1.838-2.037-0.328-.352-0.66-0.709-0.993-1.045-0.454-.47-0.916-0.942-1.374-1.4-1.27-1.294-2.493-2.621-3.634-4.033a34.495,34.495,0,0,1-2.59-3.626,15.115,15.115,0,0,1-1.561-3.224,9.437,9.437,0,0,1-.522-2.8,11.81,11.81,0,0,1,.128-1.991,11.666,11.666,0,0,1,.365-1.823,9.907,9.907,0,0,1,.585-1.674,9.667,9.667,0,0,1,.838-1.509,7.537,7.537,0,0,1,1-1.25,5.352,5.352,0,0,1,1.116-.9,5.217,5.217,0,0,1,1.227-.55,5.273,5.273,0,0,1,1.331-.169,5,5,0,0,1,1.618.226A5.074,5.074,0,0,1,30.7,21.5a5.868,5.868,0,0,1,1.29,1.106,8.236,8.236,0,0,1,1.121,1.565,12.771,12.771,0,0,1,.952,1.974,18.546,18.546,0,0,1,.737,2.349,25.934,25.934,0,0,1,.548,2.758c0.157,0.993.253,1.991,0.326,2.98,0,0.043.007,0.089,0.012,0.139h1.464V22.4a0.1,0.1,0,0,0-.061-0.033c-0.468-.357-0.937-0.709-1.425-1.044-0.461-.313-0.93-0.619-1.411-0.919-0.432-.272-0.875-0.528-1.323-0.783-0.4-.217-0.827-0.432-1.247-0.612-0.387-.176-0.778-0.335-1.179-0.472a9.481,9.481,0,0,0-1.124-.345A6.488,6.488,0,0,0,28.315,18a4.981,4.981,0,0,0-1.013-.074A6.061,6.061,0,0,0,26.184,18a6.482,6.482,0,0,0-1.058.186,7.952,7.952,0,0,0-1,.347,6.5,6.5,0,0,0-.942.477,6.042,6.042,0,0,0-.88.606,7.071,7.071,0,0,0-.819.732,8.434,8.434,0,0,0-.747.868,11.951,11.951,0,0,0-.674,1c-0.246.386-.481,0.771-0.7,1.182a13.548,13.548,0,0,0-.616,1.253c-0.193.419-.374,0.863-0.532,1.3-0.161.475-.3,0.924-0.427,1.389s-0.249.955-.348,1.437-0.179.958-.244,1.44-0.108.955-.145,1.442-0.059.972-.049,1.459a15.06,15.06,0,0,0,.631,4.121,20.691,20.691,0,0,0,1.911,4.395,33.063,33.063,0,0,0,3.172,4.686,64.628,64.628,0,0,0,4.616,5.158c0.74,0.773,1.482,1.517,2.189,2.31,0.568,0.619,1.136,1.271,1.66,1.953a19.985,19.985,0,0,1,1.239,1.715,9.416,9.416,0,0,1,.822,1.463c0.063,0.142.128,0.29,0.186,0.424s0.116,0.306.159,0.432c0.056,0.164.107,0.3,0.162,0.46,0.048,0.142.082,0.295,0.128,0.437,0,0.012,0,.017,0,0.017a0.021,0.021,0,0,0,.017.017c0.059,0.08.123,0.164,0.182,0.239,0.06,0.1.125,0.181,0.176,0.272s0.113,0.177.172,0.265c0.046,0.062.092,0.159,0.142,0.246v0m4.17,2.973h0c0.01-.067.015-0.118,0.02-0.18s0.007-.113.012-0.177v0l0-.007a1.658,1.658,0,0,1-.1-0.181,1.059,1.059,0,0,1-.085-0.187,1.174,1.174,0,0,1-.058-0.222,1.278,1.278,0,0,1-.017-0.219,1.672,1.672,0,0,1,.026-0.262,0.992,0.992,0,0,1,.067-0.231,1.145,1.145,0,0,1,.111-0.227,1.452,1.452,0,0,1,.143-0.183l0,0V62.588c0.007-.079.007-0.176,0.007-0.272V61.691c0-.121-0.007-0.234-0.012-0.34V61.344H38.841c-0.031.017-.07,0.023-0.106,0.041s-0.084.021-.125,0.028-0.09.018-.141,0.022-0.084,0-.13,0a0.68,0.68,0,0,1-.21-0.021,0.672,0.672,0,0,1-.208-0.051A0.586,0.586,0,0,1,37.73,61.3a0.791,0.791,0,0,1-.167-0.1v0l1.058,3.53c0-.008,0-0.008.012-0.008s0.034,0,.051,0a0.17,0.17,0,0,1,.059-0.012h0M20.212,67.4a0.026,0.026,0,0,1,0,.012c-0.056.046-.113,0.1-0.164,0.138s-0.116.106-.174,0.152v0a0.028,0.028,0,0,0-.019,0c-0.074-.051-0.152-0.126-0.225-0.188s-0.164-.141-0.238-0.215c-0.228-.2-0.438-0.432-0.66-0.653s-0.438-.436-0.655-0.651V65.985a3.566,3.566,0,0,1-.268-0.306c-0.095-.1-0.177-0.2-0.264-0.3s-0.154-.193-0.235-0.3c-0.063-.1-0.142-0.181-0.21-0.283H17.09V59.1h1.445c0,0.039.017,0.08,0.017,0.1,0.095,0.755.206,1.509,0.322,2.257C19,62.19,19.127,62.9,19.265,63.62c0.135,0.67.289,1.328,0.449,1.975,0.157,0.583.3,1.157,0.489,1.731a0.5,0.5,0,0,0,.01.072M43.893,80.137V80.1a2.963,2.963,0,0,0-.251-0.6,3.041,3.041,0,0,0-.438-0.54,3.1,3.1,0,0,0-.619-0.441,3.906,3.906,0,0,0-.785-0.357c-0.3-.1-0.611-0.193-0.916-0.267s-0.64-.126-0.962-0.172-0.63-.072-0.939-0.106-0.6-.058-0.9-0.079c-0.239-.018-0.466-0.029-0.684-0.064-0.246-.012-0.483-0.041-0.727-0.074-0.353-.039-0.706-0.08-1.059-0.131-0.374-.051-0.744-0.1-1.118-0.159a6.709,6.709,0,0,1-.865-0.175H33.606c-0.031.046-.056,0.058-0.077,0.087s-0.062.056-.1,0.089-0.058.051-.094,0.087c-0.031.017-.063,0.044-0.095,0.061,0,0.007-.012.007-0.012,0.007a0.006,0.006,0,0,0-.007,0c-0.032.046-.073,0.085-0.111,0.131s-0.075.1-.113,0.138a0.017,0.017,0,0,0,0,.01,0.048,0.048,0,0,1,.026,0,3.792,3.792,0,0,1,.684.053,4.88,4.88,0,0,1,.79.169,4.832,4.832,0,0,1,.8.335,4.436,4.436,0,0,1,.765.516,0.035,0.035,0,0,1,.029.023,0.014,0.014,0,0,1,.015,0c0.051,0.017.108,0.029,0.166,0.051a1.992,1.992,0,0,1,.194.087,0.538,0.538,0,0,1,.2.1,1.9,1.9,0,0,1,.188.113c0.421,0.29.832,0.567,1.276,0.817a8.29,8.29,0,0,0,1.261.574,8.564,8.564,0,0,0,1.3.323,6.481,6.481,0,0,0,1.358.113,0.619,0.619,0,0,0,.143-0.011c0.053,0,.108,0,0.166,0H42.313c-0.348-.075-0.693-0.16-1.036-0.251a4.981,4.981,0,0,1-.752-0.273,2.827,2.827,0,0,1-.464-0.21A0.778,0.778,0,0,0,39.907,80a0.592,0.592,0,0,0-.121-0.1c0-.038,0-0.1,0-0.146a0.83,0.83,0,0,1,.031-0.152,0.335,0.335,0,0,1,.048-0.126,0.2,0.2,0,0,1,.073-0.062,0.154,0.154,0,0,1,.069-0.067,0.607,0.607,0,0,1,.152-0.046,0.3,0.3,0,0,1,.138,0,0.629,0.629,0,0,1,.1.023,0.148,0.148,0,0,1,.067.029,0.059,0.059,0,0,0,.041.022,4.377,4.377,0,0,0,.908.408,6.943,6.943,0,0,0,.974.227,6.073,6.073,0,0,0,.862.1c0.21,0.016.418,0.028,0.626,0.028h0.013M31.6,72.793a0.22,0.22,0,0,0,.048.062,0.331,0.331,0,0,0,.041.075c0.01,0.028.023,0.056,0.027,0.072,0.019,0.036.019,0.058,0.036,0.087V73.1s0.007,0,.007,0a0.973,0.973,0,0,1,.208-0.108c0.082-.034.171-0.09,0.256-0.123,0.1-.041.205-0.087,0.307-0.138s0.229-.085.34-0.118c0.008,0,.008-0.013.017-0.013H32.9c0.307-.3.616-0.612,0.932-0.914,0.328-.318.669-0.641,0.993-0.964,0,0,.012,0,0.012-0.013l0.38,0.386a0.014,0.014,0,0,0-.01.007c-0.16.147-.319,0.3-0.479,0.465-0.225.2-.45,0.432-0.67,0.651a0.012,0.012,0,0,0-.014.007,0.008,0.008,0,0,0,.007-0.007c0.167-.039.331-0.073,0.491-0.118,0.181-.046.358-0.075,0.537-0.114,0.236-.041.476-0.079,0.7-0.12,0.348-.039.693-0.072,1.039-0.1,0.365-.021.729-0.034,1.092-0.021A9.852,9.852,0,0,1,39,71.807c0.357,0.033.7,0.072,1.046,0.135,0.012,0,.029.013,0.046,0.013l-0.1.528a0.085,0.085,0,0,1-.022-0.012c-0.315-.056-0.612-0.1-0.916-0.126s-0.626-.051-0.95-0.061c-0.307-.007-0.616-0.007-0.932,0s-0.609.039-.906,0.072H36.244a0.182,0.182,0,0,0,.036.046c0.278,0.278.555,0.55,0.824,0.83,0.147,0.175.294,0.344,0.444,0.516a1.622,1.622,0,0,1,.165.282,0.366,0.366,0,0,1,.017.121v0l-0.53.05c-0.046-.067-0.091-0.14-0.142-0.2a3.478,3.478,0,0,0-.324-0.381c-0.164-.171-0.335-0.357-0.495-0.511-0.225-.215-0.438-0.431-0.653-0.629a0.051,0.051,0,0,0-.024-0.029H35.508c-0.438.075-.868,0.172-1.285,0.273-0.365.113-.735,0.226-1.09,0.347-0.271.105-.541,0.219-0.809,0.339a5.345,5.345,0,0,0-.489.244H31.828v0.012c0,0.09-.022.193-0.029,0.273a2.121,2.121,0,0,1-.061.289c-0.031.1-.058,0.193-0.092,0.277a2.551,2.551,0,0,1-.108.278V74.8a0.153,0.153,0,0,0,.063.051,0.124,0.124,0,0,0,.051.046h0.013c0.074,0,.135-0.029.215-0.039a2.134,2.134,0,0,1,.217-0.017c0.085-.007.182-0.007,0.266-0.007h0.251c0.085,0.007.159,0.017,0.239,0.023,0.077,0.027.148,0.039,0.215,0.068a1.084,1.084,0,0,1,.273.135,2.126,2.126,0,0,1,.285.218,1.393,1.393,0,0,1,.222.294,0.882,0.882,0,0,1,.114.323v0.188a0.2,0.2,0,0,0-.013.046,0.12,0.12,0,0,0,0,.039c0,0.012,0,.012-0.007.012h0.031a3.337,3.337,0,0,0,.515.092c0.181,0.034.365,0.051,0.555,0.08,0.177,0.009.36,0.017,0.541,0.017s0.365,0.01.553,0a3.752,3.752,0,0,0,.652-0.046,3.613,3.613,0,0,0,.655-0.142c0.223-.075.44-0.159,0.655-0.255a7.288,7.288,0,0,0,.65-0.352,4.039,4.039,0,0,0,.529-0.357c0.174-.138.351-0.272,0.532-0.426A5.439,5.439,0,0,0,40.31,74.3c0.176-.175.348-0.361,0.512-0.526,0.21-.238.413-0.484,0.6-0.737,0.167-.221.336-0.444,0.494-0.675,0.133-.2.258-0.4,0.384-0.6,0.072-.131.159-0.254,0.239-0.4a0.067,0.067,0,0,0,0-.022,0.39,0.39,0,0,0-.067-0.021,11.588,11.588,0,0,0-1.817-.7,9.184,9.184,0,0,0-1.819-.41,8.118,8.118,0,0,0-1.746-.056,6.857,6.857,0,0,0-1.66.289A9.41,9.41,0,0,0,34.2,70.9a6.308,6.308,0,0,0-1.052.608,6.815,6.815,0,0,0-.862.636,9.073,9.073,0,0,0-.667.625,0.038,0.038,0,0,1-.019.017v0.01m-4.25,5.238H27.332c-0.042,0-.092.023-0.136,0.027a0.474,0.474,0,0,1-.176-0.022,0.366,0.366,0,0,1-.172-0.067,0.257,0.257,0,0,1-.12-0.149s0,0,0-.017a0.037,0.037,0,0,1-.013-0.027,0.036,0.036,0,0,0-.015-0.028,0.415,0.415,0,0,1,0-.046,0.216,0.216,0,0,1,0-.039,0.156,0.156,0,0,1,0-.036,0.087,0.087,0,0,1,.012-0.043,0.136,0.136,0,0,1,.01-0.046,0.128,0.128,0,0,1,.013-0.029c0-.021,0-0.034.014-0.038a0.092,0.092,0,0,0,.015-0.024,0.018,0.018,0,0,0,.017-0.013s0.01-.016.018-0.026H26.778a1.82,1.82,0,0,0-.248-0.046,1.642,1.642,0,0,0-.23-0.017,3.353,3.353,0,0,0-.409,0,2.309,2.309,0,0,0-.437.079,2.757,2.757,0,0,0-.433.109,2.376,2.376,0,0,0-.415.18c-0.061.029-.12,0.057-0.186,0.085s-0.113.079-.167,0.113a0.789,0.789,0,0,1-.148.1c-0.036.051-.072,0.09-0.106,0.131a0.581,0.581,0,0,0-.1.164,1.348,1.348,0,0,0-.082.2,0.727,0.727,0,0,0-.026.193,0.432,0.432,0,0,0,.021.151,0.582,0.582,0,0,0,.36.331,1.5,1.5,0,0,0,.578.113,2.809,2.809,0,0,0,.621-0.058,2.4,2.4,0,0,0,.522-0.131,3.191,3.191,0,0,0,.42-0.21,2.348,2.348,0,0,0,.37-0.243,3.093,3.093,0,0,0,.333-0.3c0.108-.106.22-0.2,0.317-0.311,0,0,.017-0.023.021-0.023m0.978-1.646c0-.012,0-0.022,0-0.022a2.377,2.377,0,0,0,.113-0.331c0.031-.113.07-0.226,0.1-0.335a1.717,1.717,0,0,0,.051-0.29,2.038,2.038,0,0,0,.036-0.255V75.031c0-.126-0.017-0.251-0.029-0.393a2.968,2.968,0,0,0-.068-0.4,2.416,2.416,0,0,0-.126-0.39,1.823,1.823,0,0,0-.159-0.386c-0.028-.062-0.06-0.13-0.092-0.2-0.038-.05-0.067-0.108-0.106-0.154a0.768,0.768,0,0,0-.118-0.135,0.486,0.486,0,0,0-.124-0.121,0.816,0.816,0,0,0-.166-0.106,0.659,0.659,0,0,0-.2-0.069,0.849,0.849,0,0,0-.194-0.046,0.408,0.408,0,0,0-.164.028,0.568,0.568,0,0,0-.2.16,1.065,1.065,0,0,0-.131.238,1.8,1.8,0,0,0-.072.3,2.026,2.026,0,0,0-.024.319c0,0.1.008,0.192,0.015,0.289s0.026,0.186.044,0.282a0.925,0.925,0,0,0,.055.255,2.163,2.163,0,0,0,.07.239,3.109,3.109,0,0,0,.148.311,2.823,2.823,0,0,0,.176.29,1.853,1.853,0,0,0,.2.267c0.065,0.075.14,0.159,0.21,0.244a0.007,0.007,0,0,1,.007.007h0.051a0.129,0.129,0,0,0,.043.026,0.072,0.072,0,0,1,.034.017,0.106,0.106,0,0,1,.046.028c0.026,0.024.048,0.034,0.067,0.051s0.039,0.041.063,0.063a0.636,0.636,0,0,1,.064.05,0.2,0.2,0,0,0,.051.058,0.269,0.269,0,0,1,.056.067c0.023,0.016.041,0.041,0.058,0.051a0.368,0.368,0,0,0,.046.041,0.079,0.079,0,0,1,.051.029c0.015,0.009.033,0.009,0.051,0.017a0.05,0.05,0,0,1,.051.022h0.012M23.7,74.939V74.927a0.863,0.863,0,0,1,.189-0.278,1.154,1.154,0,0,1,.283-0.21,1.637,1.637,0,0,1,.32-0.147,1.77,1.77,0,0,1,.288-0.069,0.645,0.645,0,0,0,.143-0.01,0.586,0.586,0,0,1,.13.01,0.449,0.449,0,0,1,.148.017c0.046,0,.084.008,0.13,0.012a0.009,0.009,0,0,0,.01.008l0.013-.008a0.193,0.193,0,0,1,.055-0.028,0.254,0.254,0,0,1,.061-0.051c0.056-.034.113-0.072,0.169-0.113s0.123-.1.174-0.147a2.331,2.331,0,0,0,.172-0.164c0.048-.058.094-0.108,0.145-0.172V73.565a3.172,3.172,0,0,1,.034-0.328c0.014-.08.036-0.171,0.055-0.244a0.962,0.962,0,0,1,.085-0.217,0.572,0.572,0,0,1,.108-0.186V72.567a1.289,1.289,0,0,0-.386-0.534A1.429,1.429,0,0,0,25.73,71.8a1.673,1.673,0,0,0-.32-0.16,2.114,2.114,0,0,0-.279-0.072,1.411,1.411,0,0,0-.32-0.046c-0.118,0-.23,0-0.35,0s-0.251,0-.377,0a6.919,6.919,0,0,0-.76.118,5.681,5.681,0,0,0-.74.2,6.871,6.871,0,0,0-.7.285,3.847,3.847,0,0,0-.614.357c-0.067.046-.135,0.1-0.21,0.142s-0.146.118-.217,0.18a2.534,2.534,0,0,0-.218.2,1.317,1.317,0,0,0-.22.221,0.007,0.007,0,0,0-.007.008,0.18,0.18,0,0,1,.053.01,0.28,0.28,0,0,0,.059.023,0.187,0.187,0,0,1,.063.051,0.666,0.666,0,0,1,.053.046c0.019,0.023.049,0.051,0.07,0.072a0.46,0.46,0,0,1,.041.1,0.25,0.25,0,0,1,.029.1,0.352,0.352,0,0,1,0,.108,0.622,0.622,0,0,1-.075.226,0.835,0.835,0,0,1-.162.215,1.078,1.078,0,0,1-.217.193,2.806,2.806,0,0,1-.266.2c0.3,0.09.589,0.164,0.889,0.249a8.462,8.462,0,0,0,.836.154,5.14,5.14,0,0,0,.844.072,5.06,5.06,0,0,0,.891-0.079c0.029,0,.061-0.017.087-0.017a0.2,0.2,0,0,0,.077-0.017,0.045,0.045,0,0,0,.024,0m-6.625-1.765v0c0.024-.034.033-0.058,0.063-0.1a0.432,0.432,0,0,1,.079-0.079,0.35,0.35,0,0,1,.1-0.09,0.733,0.733,0,0,1,.118-0.058,0.938,0.938,0,0,1,.172-0.056,0.38,0.38,0,0,1,.159.021,0.523,0.523,0,0,1,.154.067,0.585,0.585,0,0,1,.118.109,0,0,0,0,0,0,0,0.082,0.082,0,0,0,.013-0.027c0.051-.154.1-0.318,0.148-0.472a4.631,4.631,0,0,0,.115-0.465,3.56,3.56,0,0,0,.072-0.424,4.1,4.1,0,0,0,.049-0.495,4.414,4.414,0,0,0-.049-0.766,3.778,3.778,0,0,0-.125-0.7,5.642,5.642,0,0,0-.2-0.676,6.947,6.947,0,0,0-.274-0.657,2.288,2.288,0,0,0-.186-0.335c-0.051-.092-0.113-0.18-0.186-0.294-0.061-.079-0.131-0.159-0.194-0.233a2.264,2.264,0,0,0-.213-0.21,2.216,2.216,0,0,0-.321-0.193,2.1,2.1,0,0,0-.382-0.152,1.95,1.95,0,0,0-.382-0.046,1.345,1.345,0,0,0-.312.046,1.135,1.135,0,0,0-.381.3,1.522,1.522,0,0,0-.244.41,2.02,2.02,0,0,0-.128.454,2.535,2.535,0,0,0-.061.448c-0.009.2-.009,0.408,0,0.613s0.038,0.373.07,0.567c0.031,0.167.074,0.335,0.115,0.495s0.085,0.285.131,0.414a5.648,5.648,0,0,0,.367.755,4.279,4.279,0,0,0,.452.658,7.189,7.189,0,0,0,.539.595c0.184,0.188.377,0.381,0.563,0.562a0.11,0.11,0,0,1,.029.017m1.169,3.513a0.581,0.581,0,0,1-.015.09c-0.062.289-.125,0.569-0.176,0.841a4.9,4.9,0,0,0-.118.843,4.539,4.539,0,0,0-.029.847,4.317,4.317,0,0,0,.121.873,3.7,3.7,0,0,0,.118.41,6.4,6.4,0,0,0,.453.994,3.977,3.977,0,0,0,.325.5,1.6,1.6,0,0,0,.309.34,1.723,1.723,0,0,0,.367.311,1.243,1.243,0,0,0,.427.2,0.775,0.775,0,0,0,.476.029,0.9,0.9,0,0,0,.3-0.114,1.641,1.641,0,0,0,.288-0.262,3.07,3.07,0,0,0,.232-0.328,1.771,1.771,0,0,0,.149-0.34,1.15,1.15,0,0,1,.053-0.166,1.185,1.185,0,0,1,.018-0.176c0-.067.012-0.13,0.012-0.193a0.866,0.866,0,0,0,.015-0.2c0-.092,0-0.193-0.015-0.289s-0.024-.21-0.029-0.311c-0.046-.256-0.089-0.506-0.159-0.754s-0.149-.483-0.251-0.729a3.953,3.953,0,0,0-.312-0.675,4.72,4.72,0,0,0-.376-0.608,2.179,2.179,0,0,0-.187-0.215,2.724,2.724,0,0,0-.21-0.239c-0.079-.072-0.155-0.164-0.238-0.231-0.092-.087-0.174-0.154-0.269-0.234a0.018,0.018,0,0,0-.012,0s0,0,0-.017a0.42,0.42,0,0,1-.136-0.057c-0.045-.029-0.1-0.046-0.145-0.073S19.132,76.7,19.1,76.67s-0.07-.051-0.1-0.07a0.072,0.072,0,0,1-.012,0V76.584a0.049,0.049,0,0,1-.046-0.017h-0.21a0.524,0.524,0,0,0-.159.017,0.8,0.8,0,0,0-.092.017,0.167,0.167,0,0,1-.072.019,0.162,0.162,0,0,0-.082.034,0.1,0.1,0,0,0-.066.033H18.243M28.576,4.862a0.044,0.044,0,0,1,.036-0.012,9.162,9.162,0,0,1,.929-0.365,6.982,6.982,0,0,1,1.044-.272,3.374,3.374,0,0,1,.981-0.1,1.305,1.305,0,0,1,.756.193c0.036,0.029.079,0.046,0.108,0.07a1.211,1.211,0,0,1,.148.169,1.226,1.226,0,0,1,.135.284,1.929,1.929,0,0,1,.08.416l0.007,0a0.136,0.136,0,0,0-.046.058A7.5,7.5,0,0,0,31.726,6.88,22.443,22.443,0,0,0,30.736,9c-0.264.634-.491,1.281-0.756,1.921a7.312,7.312,0,0,0-.374,1.085,0.886,0.886,0,0,0-.029.249,0.709,0.709,0,0,0,.067.263,0.579,0.579,0,0,0,.154.192,0.568,0.568,0,0,0,.235.136,0.714,0.714,0,0,0,.266.033,0.544,0.544,0,0,0,.244-0.072,0.832,0.832,0,0,0,.21-0.154,0.738,0.738,0,0,0,.123-0.226c0.271-.591.44-1.187,0.657-1.787a20.1,20.1,0,0,1,.791-1.9c0.256-.583.522-1.132,0.828-1.684A4.1,4.1,0,0,1,33.9,6.048,3.859,3.859,0,0,1,34.6,5.576a3.012,3.012,0,0,1,.563-0.244,1.377,1.377,0,0,1,.427-0.079,0.618,0.618,0,0,1,.29.084,0.711,0.711,0,0,1,.181.188,0.981,0.981,0,0,1,.1.318,2.769,2.769,0,0,1,.018.391,1.784,1.784,0,0,1-.059.477,3.33,3.33,0,0,1-.37.75C35.467,7.89,35.188,8.3,34.9,8.714c-0.348.5-.718,1.037-1.111,1.52A15.663,15.663,0,0,0,32.579,11.8a0.568,0.568,0,0,0-.126.227,0.543,0.543,0,0,0-.026.251,0.487,0.487,0,0,0,.079.248,0.558,0.558,0,0,0,.169.215,0.658,0.658,0,0,0,.239.109,0.677,0.677,0,0,0,.256.033,0.709,0.709,0,0,0,.246-0.079,0.734,0.734,0,0,0,.208-0.169,10.077,10.077,0,0,0,.908-1.158c0.4-.552.819-1.089,1.218-1.63S36.507,8.765,36.857,8.2a3.873,3.873,0,0,0,.573-1.22,2.457,2.457,0,0,0,.09-0.894A2.473,2.473,0,0,0,37.4,5.3a1.872,1.872,0,0,0-.829-1.116,1.685,1.685,0,0,0-.555-0.221,2.551,2.551,0,0,0-1.31.108,2.65,2.65,0,0,0-.7.294,0.114,0.114,0,0,1-.02.013,0.04,0.04,0,0,0-.007-0.018,3.107,3.107,0,0,0-.189-0.41,1.763,1.763,0,0,0-.239-0.344,1.3,1.3,0,0,0-.261-0.255,2.406,2.406,0,0,0-.268-0.188A2.759,2.759,0,0,0,31.7,2.778a5.349,5.349,0,0,0-1.466.126,7.664,7.664,0,0,0-1.348.39,9.269,9.269,0,0,0-.947.386A0.035,0.035,0,0,0,27.9,3.7a0.039,0.039,0,0,0-.033-0.024,9.8,9.8,0,0,0-.937-0.386A8.137,8.137,0,0,0,25.58,2.9a5.31,5.31,0,0,0-1.461-.126,2.694,2.694,0,0,0-1.336.386c-0.087.057-.177,0.118-0.269,0.188a1.3,1.3,0,0,0-.256.255,1.427,1.427,0,0,0-.232.344,2.283,2.283,0,0,0-.189.41s0,0.018-.01.018S21.811,4.367,21.8,4.367a2.634,2.634,0,0,0-.7-0.294,1.816,1.816,0,0,0-.681-0.142,1.875,1.875,0,0,0-.626.034,1.728,1.728,0,0,0-.558.221,1.814,1.814,0,0,0-.509.465,1.953,1.953,0,0,0-.323.65,2.936,2.936,0,0,0-.116.779,2.971,2.971,0,0,0,.087.894A4.081,4.081,0,0,0,18.95,8.2c0.353,0.569.72,1.114,1.111,1.651s0.822,1.068,1.208,1.63a12.6,12.6,0,0,0,.916,1.158,0.729,0.729,0,0,0,.21.169,0.638,0.638,0,0,0,.239.079A0.7,0.7,0,0,0,22.9,12.85a0.717,0.717,0,0,0,.236-0.109,0.514,0.514,0,0,0,.172-0.215,0.469,0.469,0,0,0,.074-0.248,0.6,0.6,0,0,0-.017-0.251,0.8,0.8,0,0,0-.13-0.227,17.592,17.592,0,0,0-1.211-1.566c-0.394-.483-0.763-1.015-1.116-1.52-0.28-.41-0.555-0.824-0.843-1.253a2.672,2.672,0,0,1-.366-0.75,1.6,1.6,0,0,1-.064-0.477,2.615,2.615,0,0,1,.02-0.391,0.958,0.958,0,0,1,.111-0.318,0.5,0.5,0,0,1,.457-0.272,1.354,1.354,0,0,1,.43.079,3.159,3.159,0,0,1,.563.244,3.747,3.747,0,0,1,.689.472,3.957,3.957,0,0,1,.751,1.008,16.631,16.631,0,0,1,.829,1.684c0.3,0.616.578,1.266,0.809,1.9,0.21,0.6.366,1.2,0.635,1.787a0.768,0.768,0,0,0,.138.226,0.6,0.6,0,0,0,.2.154,0.561,0.561,0,0,0,.248.072,0.711,0.711,0,0,0,.266-0.033A0.564,0.564,0,0,0,26,12.714a0.488,0.488,0,0,0,.162-0.192,0.583,0.583,0,0,0,.066-0.263,0.715,0.715,0,0,0-.026-0.249,7.082,7.082,0,0,0-.382-1.085C25.568,10.285,25.338,9.638,25.068,9c-0.289-.716-0.622-1.42-0.983-2.124A6.29,6.29,0,0,0,23.05,5.31a0.085,0.085,0,0,0-.041-0.058v0A1.739,1.739,0,0,1,23.1,4.832a1.012,1.012,0,0,1,.131-0.284,2.041,2.041,0,0,1,.142-0.169,0.951,0.951,0,0,0,.107-0.07,1.517,1.517,0,0,1,.763-0.193,3.4,3.4,0,0,1,.979.1,6.412,6.412,0,0,1,1.046.272c0.331,0.121.642,0.247,0.967,0.376v7.37a1,1,0,0,0,.043.239,1.134,1.134,0,0,0,.153.219,0.665,0.665,0,0,0,.212.146,0.765,0.765,0,0,0,.261.046,0.782,0.782,0,0,0,.264-0.046,0.627,0.627,0,0,0,.215-0.146,0.746,0.746,0,0,0,.143-0.219,0.65,0.65,0,0,0,.051-0.239V4.862m0.5-3.684V1.157A1.228,1.228,0,0,0,29,.724,1.1,1.1,0,0,0,28.737.351,0.923,0.923,0,0,0,28.363.09,1.325,1.325,0,0,0,27.9,0a1.385,1.385,0,0,0-.458.092,0.885,0.885,0,0,0-.372.26,1.079,1.079,0,0,0-.254.374,0.95,0.95,0,0,0-.091.454,0.907,0.907,0,0,0,.091.444,1.007,1.007,0,0,0,.254.39,0.929,0.929,0,0,0,.372.244,0.812,0.812,0,0,0,.458.087,0.794,0.794,0,0,0,.459-0.087,0.971,0.971,0,0,0,.374-0.244A1.027,1.027,0,0,0,29,1.622,1.019,1.019,0,0,0,29.081,1.2V1.178M22.7,14.786H22.683a0.681,0.681,0,0,0-.241.113,0.765,0.765,0,0,0-.179.18,1.027,1.027,0,0,0-.1.239,0.8,0.8,0,0,0,.009.261,0.521,0.521,0,0,0,.111.255,0.667,0.667,0,0,0,.182.176,1.055,1.055,0,0,0,.236.1,2.011,2.011,0,0,0,.276,0c0.3-.038.585-0.108,0.882-0.164,0.749-.125,1.51-0.193,2.268-0.243a21.423,21.423,0,0,1,3.153-.041c1.193,0.074,2.344.318,3.561,0.448a1.863,1.863,0,0,0,.268,0,0.51,0.51,0,0,0,.232-0.1,0.88,0.88,0,0,0,.193-0.175,0.748,0.748,0,0,0,.1-0.244,0.59,0.59,0,0,0,0-.277,0.614,0.614,0,0,0-.089-0.239,0.666,0.666,0,0,0-.174-0.18,1.512,1.512,0,0,0-.244-0.113,12.216,12.216,0,0,0-3.747-.478c-1.1-.028-2.206-0.028-3.3.046-0.8.051-1.6,0.147-2.387,0.249-0.336.058-.672,0.113-1,0.183h0M4.3,55.007V54.991a0.737,0.737,0,0,1,.073-0.313A0.987,0.987,0,0,1,4.551,54.4a0.832,0.832,0,0,1,.274-0.18,0.781,0.781,0,0,1,.325-0.058,0.792,0.792,0,0,1,.331.058,0.7,0.7,0,0,1,.266.18,0.9,0.9,0,0,1,.189.278,0.885,0.885,0,0,1,.063.33,0.953,0.953,0,0,1-.063.324,0.865,0.865,0,0,1-.189.272,0.836,0.836,0,0,1-.6.239,0.713,0.713,0,0,1-.325-0.063A0.866,0.866,0,0,1,4.551,55.6a0.943,0.943,0,0,1-.178-0.272A0.788,0.788,0,0,1,4.3,55.012v0M14.346,67.914a0.074,0.074,0,0,0-.029-0.017c-0.251-.2-0.5-0.385-0.758-0.578s-0.529-.385-0.8-0.572-0.551-.376-0.832-0.557-0.565-.374-0.857-0.537a14.393,14.393,0,0,0-1.283-.688,7.985,7.985,0,0,0-1.264-.493,7.093,7.093,0,0,0-1.229-.29A6.058,6.058,0,0,0,6.125,64.1H5.641c-0.079,0-.166.009-0.238,0.009a1.621,1.621,0,0,0-.252.075c-0.1.034-.193,0.08-0.289,0.118-0.326.159-.643,0.326-0.971,0.473a8.164,8.164,0,0,1-1.065.407,4.211,4.211,0,0,1-1.085.176,2.56,2.56,0,0,1-.978-0.169,0.145,0.145,0,0,1-.044-0.02v-0.1a1.786,1.786,0,0,1,.01-0.231c0.013-.1.025-0.2,0.041-0.3s0.039-.2.051-0.277,0.029-.155.049-0.222a3.455,3.455,0,0,1,.3-0.709,3.054,3.054,0,0,1,.463-0.636,3.06,3.06,0,0,1,.582-0.533,4.183,4.183,0,0,1,.715-0.415,4.227,4.227,0,0,1,.758-0.289,6.148,6.148,0,0,1,.8-0.14A7.221,7.221,0,0,1,5.3,61.31a2.966,2.966,0,0,1,.786.138,1.541,1.541,0,0,1,.379.169c0.23,0.1.468,0.2,0.7,0.3,0.268,0.13.529,0.236,0.79,0.374,0.222,0.113.437,0.231,0.66,0.357,0.4,0.222.814,0.415,1.218,0.629,0.454,0.239.9,0.49,1.346,0.762,0.3,0.169.6,0.37,0.888,0.55,0.249,0.154.484,0.318,0.72,0.47,0.193,0.133.382,0.255,0.563,0.385s0.369,0.28.553,0.415,0.37,0.272.551,0.419,0.348,0.272.522,0.415a0.029,0.029,0,0,1,.014.012l-0.007.013c-0.072.067-.138,0.151-0.205,0.226a1.257,1.257,0,0,0-.182.29,1.81,1.81,0,0,0-.142.318c-0.041.113-.068,0.244-0.1,0.357v0.01m4.081,0.557a0.065,0.065,0,0,0,.012.012c0.1,0.08.2,0.164,0.3,0.26,0.063,0.062.125,0.108,0.189,0.172a0.015,0.015,0,0,1,.012,0H18.922a1.649,1.649,0,0,1-.1.193c-0.026.046-.061,0.113-0.089,0.164a0.024,0.024,0,0,0,0,.017,0.029,0.029,0,0,0,0-.017c-0.017-.062-0.044-0.142-0.061-0.21a1.443,1.443,0,0,1-.077-0.215,1.61,1.61,0,0,1-.084-0.2c-0.024-.062-0.046-0.108-0.075-0.175m-2.114-2.127a0.253,0.253,0,0,1-.066-0.023,0.131,0.131,0,0,1-.065-0.013,1.534,1.534,0,0,0-.21,0,0.638,0.638,0,0,0-.2.036,0.468,0.468,0,0,0-.169.027,0.27,0.27,0,0,0-.128.036h0c0-.024-0.013-0.024-0.018-0.024a6.957,6.957,0,0,0-.568-0.441c-0.188-.167-0.393-0.314-0.594-0.462s-0.4-.293-0.6-0.448-0.409-.285-0.609-0.419c-0.244-.16-0.483-0.324-0.727-0.483-0.273-.171-0.548-0.339-0.824-0.511-0.466-.285-0.952-0.562-1.449-0.812-0.4-.219-0.809-0.424-1.213-0.639-0.22-.108-0.443-0.239-0.67-0.352-0.266-.125-0.537-0.251-0.795-0.377-0.235-.105-0.466-0.218-0.7-0.315A2.356,2.356,0,0,1,6.3,60.966a1.551,1.551,0,0,1-.411-0.37,1.759,1.759,0,0,1-.239-0.38,1.306,1.306,0,0,1-.118-0.391,1.366,1.366,0,0,1-.041-0.352,1.721,1.721,0,0,1,.022-0.217,1.008,1.008,0,0,1,.024-0.176c0.012-.067.036-0.123,0.046-0.185A4.371,4.371,0,0,0,5.7,58.45a4.321,4.321,0,0,0,.067-0.431c0.015-.131.033-0.282,0.038-0.414s0.013-.249.013-0.379c0-.087,0-0.188,0-0.29,0-.08-0.008-0.154-0.013-0.226,0-.008-0.012-0.008-0.012-0.008H5.818a1.664,1.664,0,0,0,.345.07c0.164,0.01.323,0.043,0.484,0.043a6.077,6.077,0,0,0,.635.013c0.258-.013.509-0.046,0.775-0.064,0.1,0,.215-0.021.328-0.028a7.739,7.739,0,0,1,.839,0c0.4,0.028.795,0.051,1.184,0.108a8.3,8.3,0,0,1,1.308.306c0.015,0,.036.012,0.056,0.012v0.01c0.033,0.154.056,0.285,0.089,0.437,0.061,0.233.113,0.456,0.186,0.682,0.087,0.294.182,0.608,0.288,0.907a11.1,11.1,0,0,0,.389,1.073c0.058,0.125.11,0.256,0.155,0.374,0.092,0.2.176,0.41,0.268,0.614s0.189,0.413.285,0.612,0.212,0.424.323,0.629,0.215,0.419.336,0.624c0.164,0.3.328,0.575,0.5,0.852s0.358,0.55.541,0.829c0.191,0.254.369,0.526,0.579,0.776,0.187,0.239.375,0.5,0.581,0.721a0.262,0.262,0,0,1,.021.046h0M55.03,68.068h0a3.148,3.148,0,0,0-.445-0.046,4.277,4.277,0,0,0-.459.007,4.04,4.04,0,0,0-.449.039c-0.138.012-.289,0.041-0.432,0.058A1.009,1.009,0,0,1,53,68.16c-0.078.016-.146,0.016-0.225,0.026-0.064.012-.128,0.02-0.192,0.029-0.1.007-.217,0.028-0.33,0.028a1.777,1.777,0,0,1-.346.022,1.175,1.175,0,0,1-.317-0.022,0.834,0.834,0,0,1-.312-0.067,0.111,0.111,0,0,1-.074-0.033,0.327,0.327,0,0,1-.09-0.042c-0.051-.021-0.087-0.062-0.142-0.084-0.034-.046-0.078-0.067-0.114-0.121a1.155,1.155,0,0,1-.087-0.123l-0.048-.12v0c0-.024-0.007-0.051-0.007-0.075s0.007-.046.007-0.062c0.01-.034.017-0.051,0.021-0.067a0.07,0.07,0,0,1,.036-0.063,0.247,0.247,0,0,1,.049-0.084,1.609,1.609,0,0,1,.207-0.193,1.251,1.251,0,0,1,.254-0.142,1.915,1.915,0,0,1,.3-0.092c0.1-.026.213-0.051,0.315-0.084a0.58,0.58,0,0,0,.159-0.034c0.074,0,.143-0.033.222-0.038s0.148-.018.218-0.024,0.128-.017.191-0.017h0.2a2.235,2.235,0,0,1,.5.1,2.345,2.345,0,0,1,.5.206c0.156,0.1.311,0.2,0.453,0.318a4.4,4.4,0,0,1,.428.436c0.051,0.059.089,0.109,0.135,0.164s0.08,0.121.113,0.172M52.244,62.79h0c0.029,0.063.051,0.125,0.08,0.188s0.046,0.136.063,0.21,0.039,0.146.051,0.226a1.82,1.82,0,0,1,.036.216,1.354,1.354,0,0,1,.031.232c0,0.062,0,.147,0,0.2,0,0.118,0,.231-0.013.344s-0.043.229-.069,0.335a1.312,1.312,0,0,1-.1.29,1.219,1.219,0,0,1-.143.3c-0.022.041-.063,0.092-0.1,0.146s-0.082.109-.123,0.167-0.1.1-.148,0.157-0.113.1-.167,0.171a0.89,0.89,0,0,0-.113.1c-0.072.062-.157,0.142-0.236,0.215a1.951,1.951,0,0,1-.254.193,1.539,1.539,0,0,1-.256.133,0.831,0.831,0,0,1-.294.056h-0.1A0.488,0.488,0,0,0,50.3,66.65a0.128,0.128,0,0,1-.067-0.033,0.179,0.179,0,0,1-.07-0.059,0.366,0.366,0,0,1-.074-0.091,0.686,0.686,0,0,1-.049-0.119,0.752,0.752,0,0,1-.027-0.13A1.407,1.407,0,0,1,50,66.076V66.019a0.083,0.083,0,0,0,.012-0.051,0.651,0.651,0,0,0,0-.072,0.8,0.8,0,0,0,.027-0.087,1.6,1.6,0,0,1,.1-0.3,2.961,2.961,0,0,1,.177-0.28c0.067-.1.143-0.18,0.205-0.265,0.082-.087.153-0.164,0.232-0.262,0.051-.056.113-0.118,0.164-0.18,0.034-.039.07-0.068,0.106-0.114s0.07-.072.1-0.118a0.348,0.348,0,0,1,.069-0.058c0.092-.1.188-0.214,0.289-0.311,0.095-.13.189-0.244,0.285-0.359a2.889,2.889,0,0,0,.263-0.374,3,3,0,0,0,.215-0.381l0-.017M49.2,66.785h0v0.147a0.648,0.648,0,0,1,0,.087v0l-0.021.407,0.382-.135a0.068,0.068,0,0,1,.031-0.016,0.193,0.193,0,0,1,.079-0.023,0.965,0.965,0,0,1,.126-0.012,0.57,0.57,0,0,1,.135-0.012h0.013v0.012a0.121,0.121,0,0,1-.023.051c-0.01.029-.022,0.051-0.036,0.084a0.612,0.612,0,0,1-.051.087,0.653,0.653,0,0,1-.072.106s-0.007,0-.007.012l-0.2.285,0.331,0.118h0s0,0,.013,0a0.034,0.034,0,0,0,.014.019c0.013,0,.02,0,0.032.01a0.2,0.2,0,0,1,.038.017h0a2.146,2.146,0,0,1-.277.029,1.262,1.262,0,0,1-.3,0,1.4,1.4,0,0,1-.256-0.034,0.612,0.612,0,0,1-.189-0.079H48.945v0a0.725,0.725,0,0,1-.019-0.246,1.064,1.064,0,0,1,.019-0.227,2.451,2.451,0,0,1,.065-0.272,2.415,2.415,0,0,1,.092-0.231c0.034-.046.064-0.131,0.1-0.176l0-.012m2.979-.6,0.012-.012a1.087,1.087,0,0,1,.131-0.131c0.046-.055.077-0.1,0.118-0.151a0.73,0.73,0,0,0,.111-0.142,1.549,1.549,0,0,0,.1-0.154,0.942,0.942,0,0,0,.094-0.186,0.715,0.715,0,0,0,.075-0.188,1.637,1.637,0,0,0,.063-0.2c0.01-.064.031-0.126,0.043-0.193V64.81h0.013c0.143,0.025.268,0.029,0.386,0.046a2.764,2.764,0,0,1,.331.126,1.451,1.451,0,0,1,.246.125,0.932,0.932,0,0,1,.14.1h0v0.044a0.638,0.638,0,0,1-.015.166,0.68,0.68,0,0,1-.051.244,1.431,1.431,0,0,1-.108.3,2.01,2.01,0,0,1-.191.323c-0.008,0-.008.01-0.018,0.017V66.291a0.906,0.906,0,0,1-.145-0.055c-0.056-.017-0.1-0.028-0.167-0.046s-0.1-.028-0.161-0.051c-0.051,0-.108-0.012-0.169-0.012H52.807c-0.074,0-.143,0-0.22.007a2.131,2.131,0,0,0-.212.027c-0.056.007-.118,0.017-0.182,0.028H52.182m-1.759-4.732a0.045,0.045,0,0,1-.019.017,2.644,2.644,0,0,0-.242.381,1.962,1.962,0,0,0-.2.385,3.341,3.341,0,0,0-.179.419c-0.044.147-.1,0.28-0.154,0.427a1.751,1.751,0,0,0-.075.21c-0.041.1-.077,0.2-0.116,0.3-0.05.13-.1,0.272-0.154,0.408-0.038.1-.089,0.2-0.143,0.311a1.933,1.933,0,0,1-.166.267,1.316,1.316,0,0,1-.205.244,1.271,1.271,0,0,1-.138.092,0.411,0.411,0,0,1-.152.084,0.938,0.938,0,0,1-.159.051,0.694,0.694,0,0,1-.149.024,0.384,0.384,0,0,1-.136-0.024,0.406,0.406,0,0,1-.069-0.022c-0.034-.013-0.049-0.046-0.073-0.051a0.742,0.742,0,0,1-.062-0.075,0.581,0.581,0,0,1-.043-0.1,0.278,0.278,0,0,1-.046-0.108,0.332,0.332,0,0,1-.024-0.1,0.308,0.308,0,0,1-.024-0.1c0-.051,0-0.1,0-0.123A1.511,1.511,0,0,1,47.7,64.2a0.952,0.952,0,0,1,.033-0.18,1.81,1.81,0,0,1,.046-0.193c0.024-.062.029-0.13,0.051-0.2a0.505,0.505,0,0,0,.041-0.147,2.31,2.31,0,0,0,.061-0.226,2.149,2.149,0,0,0,.084-0.2,0.746,0.746,0,0,1,.082-0.176,1.216,1.216,0,0,1,.085-0.175,4.938,4.938,0,0,1,.319-0.4,3.357,3.357,0,0,1,.415-0.334,3.118,3.118,0,0,1,.513-0.251,2.227,2.227,0,0,1,.567-0.181c0.069-.021.138-0.033,0.211-0.05a1.8,1.8,0,0,1,.207-0.024h0.012m-5.989,0h0a1.693,1.693,0,0,1,.2.024c0.07,0.017.143,0.029,0.218,0.05a2.311,2.311,0,0,1,.57.181,3.183,3.183,0,0,1,.5.251,2.25,2.25,0,0,1,.415.334,3.277,3.277,0,0,1,.322.4c0.028,0.052.063,0.113,0.089,0.175a0.956,0.956,0,0,1,.077.176,1.967,1.967,0,0,1,.077.21c0.034,0.087.059,0.2,0.087,0.285,0.034,0.13.072,0.256,0.107,0.4,0.017,0.1.039,0.2,0.051,0.3a1.2,1.2,0,0,1,0,.29,2.02,2.02,0,0,1-.085.282c-0.017.034-.038,0.067-0.05,0.1a0.746,0.746,0,0,1-.059.075,0.4,0.4,0,0,0-.072.051,0.628,0.628,0,0,1-.075.022,0.2,0.2,0,0,1-.13.024,0.671,0.671,0,0,1-.152-0.024A0.688,0.688,0,0,1,46.374,65a0.4,0.4,0,0,1-.156-0.084,0.461,0.461,0,0,1-.123-0.092,1.194,1.194,0,0,1-.215-0.244,1.017,1.017,0,0,1-.167-0.285,1.752,1.752,0,0,1-.15-0.311c-0.044-.108-0.082-0.21-0.123-0.318a1.579,1.579,0,0,0-.063-0.159A1.389,1.389,0,0,1,45.3,63.3a2.032,2.032,0,0,0-.087-0.21,3.673,3.673,0,0,0-.146-0.427c-0.064-.142-0.111-0.277-0.177-0.419s-0.13-.26-0.205-0.385a2.072,2.072,0,0,0-.249-0.381l0-.017m2.682,4.887,0.061-.415V65.9c0.01-.029.015-0.046,0.026-0.087a0.3,0.3,0,0,1,.036-0.114,0.534,0.534,0,0,1,.061-0.123l0-.012h0c0.014,0.017.031,0.034,0.043,0.051a0.5,0.5,0,0,0,.051.067,0.763,0.763,0,0,0,.063.087,0.86,0.86,0,0,0,.054.118h0.015l0.154,0.324,0.261-.239s0,0,.007-0.01a0.044,0.044,0,0,0,.022-0.012A0.042,0.042,0,0,0,48,65.929a0.1,0.1,0,0,1,.033-0.028v0.012a1.787,1.787,0,0,1-.1.256c-0.039.084-.08,0.176-0.128,0.26a0.979,0.979,0,0,1-.169.2,0.388,0.388,0,0,1-.149.147H47.463a0.873,0.873,0,0,1-.212-0.08,1,1,0,0,1-.2-0.142,0.809,0.809,0,0,1-.2-0.187c-0.065-.063-0.116-0.119-0.172-0.181a1,1,0,0,1-.11-0.176v0a0.538,0.538,0,0,1,.092.062,0.31,0.31,0,0,1,.108.056l0.345,0.217M47.413,61h0a0.919,0.919,0,0,1,.146.09,1.772,1.772,0,0,1,.2.154,1.529,1.529,0,0,1,.227.243,2.171,2.171,0,0,1,.218.352l0,0c0,0.013,0,.013-0.008.013-0.033.033-.082,0.058-0.111,0.092a0.59,0.59,0,0,0-.126.118,1.356,1.356,0,0,0-.113.125c-0.034.051-.067,0.1-0.1,0.136-0.038.058-.064,0.133-0.105,0.187a1,1,0,0,1-.085.2,1.326,1.326,0,0,0-.079.2,1.757,1.757,0,0,0-.051.181c-0.013,0-.013,0-0.013.007V63.1a1,1,0,0,0-.068-0.181,0.676,0.676,0,0,0-.077-0.175,1.134,1.134,0,0,0-.066-0.164,1.254,1.254,0,0,0-.092-0.159C47.079,62.361,47.036,62.3,47,62.245s-0.092-.1-0.138-0.147-0.089-.1-0.147-0.159a1.131,1.131,0,0,1-.148-0.123l-0.008-.007s0.008-.01.013-0.018a1.927,1.927,0,0,1,.217-0.318,1.977,1.977,0,0,1,.239-0.231c0.072-.058.149-0.1,0.225-0.154A0.877,0.877,0,0,1,47.406,61h0.007M9.667,54.728h0A0.8,0.8,0,0,1,9.734,54.4a0.931,0.931,0,0,1,.176-0.265,0.987,0.987,0,0,1,.274-0.182,0.671,0.671,0,0,1,.328-0.073,0.65,0.65,0,0,1,.33.073,0.842,0.842,0,0,1,.269.182,0.777,0.777,0,0,1,.186.265,0.865,0.865,0,0,1,.066.324,0.887,0.887,0,0,1-.066.342,0.789,0.789,0,0,1-.186.261,1.339,1.339,0,0,1-.269.192,1,1,0,0,1-.33.056,1.041,1.041,0,0,1-.328-0.056,1.73,1.73,0,0,1-.274-0.192,0.855,0.855,0,0,1-.176-0.261,0.8,0.8,0,0,1-.067-0.326V54.728m-6.79,5.038V59.75a0.74,0.74,0,0,1,.068-0.306,0.587,0.587,0,0,1,.181-0.268,0.85,0.85,0,0,1,.6-0.26,0.718,0.718,0,0,1,.326.075,0.732,0.732,0,0,1,.263.185,0.6,0.6,0,0,1,.184.268,0.737,0.737,0,0,1,.067.323A0.751,0.751,0,0,1,4.5,60.1a0.8,0.8,0,0,1-.184.272,0.816,0.816,0,0,1-.263.18,0.805,0.805,0,0,1-.326.063,0.858,0.858,0,0,1-.336-0.063,0.849,0.849,0,0,1-.263-0.18A0.773,0.773,0,0,1,2.945,60.1a0.75,0.75,0,0,1-.068-0.326v0m36.169,3.751V63.511a0.7,0.7,0,0,1,.07-0.323,1.1,1.1,0,0,1,.176-0.273,0.845,0.845,0,0,1,.269-0.169,0.724,0.724,0,0,1,.328-0.069,0.734,0.734,0,0,1,.33.069,0.751,0.751,0,0,1,.261.169,1.065,1.065,0,0,1,.189.273,0.849,0.849,0,0,1,.067.33,0.824,0.824,0,0,1-.067.324,0.588,0.588,0,0,1-.189.264,0.712,0.712,0,0,1-.261.183,0.758,0.758,0,0,1-.33.068,0.748,0.748,0,0,1-.328-0.068,0.794,0.794,0,0,1-.269-0.183,0.6,0.6,0,0,1-.176-0.264,0.679,0.679,0,0,1-.07-0.314v-0.01M37.5,60.062v-0.01a0.894,0.894,0,0,1,.067-0.319,0.841,0.841,0,0,1,.184-0.267,0.954,0.954,0,0,1,.269-0.193,1.266,1.266,0,0,1,.323-0.055,1.313,1.313,0,0,1,.328.055,0.948,0.948,0,0,1,.273.193,0.818,0.818,0,0,1,.177.267,0.8,0.8,0,0,1,.067.329,0.9,0.9,0,0,1-.067.33,0.719,0.719,0,0,1-.177.26,0.781,0.781,0,0,1-.273.188,0.665,0.665,0,0,1-.328.062,0.643,0.643,0,0,1-.323-0.062,0.783,0.783,0,0,1-.269-0.188,0.738,0.738,0,0,1-.184-0.26,0.85,0.85,0,0,1-.067-0.323V60.062m-6.856,12.09,0.007-.01c0.034-.087.063-0.146,0.1-0.221,0.043-.1.079-0.193,0.123-0.285,0.138-.315.263-0.65,0.394-0.947,0.135-.341.256-0.68,0.386-1.011s0.238-.668.346-1,0.208-.663.3-1.02c0.056-.234.121-0.477,0.169-0.728,0.048-.232.087-0.465,0.121-0.709,0.033-.222.051-0.449,0.067-0.675,0.017-.21.028-0.424,0.028-0.642,0-.13,0-0.26-0.012-0.39s-0.017-.251-0.022-0.382a3.467,3.467,0,0,1-.051-0.374c-0.02-.113-0.041-0.244-0.075-0.368a3.075,3.075,0,0,0-.1-0.386,2.533,2.533,0,0,0-.126-0.364c-0.058-.1-0.113-0.21-0.176-0.3s-0.138-.2-0.213-0.3a1.689,1.689,0,0,0-.181-0.182,1.92,1.92,0,0,0-.182-0.193,2.454,2.454,0,0,1-.2-0.21,1.845,1.845,0,0,1-.193-0.214c-0.058-.075-0.111-0.142-0.157-0.215a1.144,1.144,0,0,1-.123-0.251,0.546,0.546,0,0,1-.061-0.182,0.846,0.846,0,0,1-.041-0.171c-0.012-.056-0.021-0.126-0.028-0.176s-0.01-.118-0.01-0.181a0.246,0.246,0,0,0,0-.034V60h0.012a1.926,1.926,0,0,1,.3-0.046c0.1,0,.206-0.008.307-0.013a3.081,3.081,0,0,1,.457.023,1.757,1.757,0,0,1,.435.1,2.487,2.487,0,0,1,.406.21,2.457,2.457,0,0,1,.391.294,3.231,3.231,0,0,1,.29.289c0.1,0.121.2,0.239,0.285,0.36,0.106,0.13.191,0.264,0.289,0.412s0.172,0.3.256,0.465a0.018,0.018,0,0,1,.015.008,0.528,0.528,0,0,1,0,.084c-0.046.529-.12,1.09-0.207,1.635-0.1.58-.223,1.14-0.361,1.707-0.145.55-.312,1.112-0.5,1.664s-0.4,1.107-.638,1.644c-0.164.357-.317,0.692-0.491,1.044-0.157.3-.317,0.608-0.481,0.9-0.143.255-.294,0.511-0.452,0.754-0.128.206-.244,0.4-0.374,0.586a0.068,0.068,0,0,1-.021.026m6.443-10.678v0.012c0.177,0.6.358,1.192,0.535,1.787,0.169,0.552.345,1.114,0.512,1.68,0,0,0,.012,0,0.012H38.121c-0.113.073-.232,0.165-0.348,0.249-0.169.138-.343,0.267-0.514,0.4-0.223.175-.43,0.368-0.638,0.545-0.256.221-.5,0.455-0.744,0.682-0.365.362-.722,0.73-1.063,1.117s-0.66.762-.962,1.165-0.591.8-.857,1.207c-0.269.386-.512,0.793-0.747,1.2a0.11,0.11,0,0,0-.021.05,0.011,0.011,0,0,1-.013.013,2.028,2.028,0,0,0-.248.21,3.14,3.14,0,0,0-.269.231c-0.092.07-.164,0.154-0.256,0.239-0.072.079-.159,0.147-0.236,0.226,0,0.024,0,.024,0,0.024h-0.01a0.274,0.274,0,0,0-.126-0.041h0a0.623,0.623,0,0,1,.038-0.062,17.717,17.717,0,0,0,.947-1.543,22.26,22.26,0,0,0,1.093-2.291,21.066,21.066,0,0,0,.966-2.883,19.24,19.24,0,0,0,.576-3.308,0.957,0.957,0,0,0,.017-0.154h0.007c0.379-.113.752-0.244,1.126-0.357,0.416-.142.822-0.265,1.226-0.407a0.033,0.033,0,0,1,.023-0.008M34.8,78.428l0.084,0.125-0.01,0a0.792,0.792,0,0,1-.14.092,0.593,0.593,0,0,1-.145.063c-0.059.028-.113,0.046-0.159,0.067a0.748,0.748,0,0,0-.155.041h-0.01a1,1,0,0,1,.143.084c0.21,0.136.425,0.278,0.628,0.432s0.4,0.3.587,0.465,0.376,0.339.55,0.511,0.331,0.357.489,0.532a0.218,0.218,0,0,0,.019.039l-0.42.339a0.081,0.081,0,0,0-.007-0.021c-0.107-.135-0.22-0.26-0.333-0.385s-0.249-.252-0.379-0.375-0.271-.221-0.4-0.347c-0.133-.1-0.266-0.2-0.4-0.31a0.016,0.016,0,0,0-.017-0.008v0.008c0.026,0.084.054,0.169,0.075,0.26s0.046,0.187.068,0.284,0.034,0.181.046,0.282a1.9,1.9,0,0,1,.017.255v0.018H34.4V80.856a2.5,2.5,0,0,0-.048-0.413c-0.037-.159-0.073-0.306-0.121-0.448s-0.087-.285-0.133-0.444c-0.039-.085-0.07-0.181-0.111-0.277v0h0a0.083,0.083,0,0,1-.015-0.019c-0.094-.056-0.191-0.1-0.276-0.147-0.1-.051-0.181-0.1-0.276-0.152h-0.01v0.01a0.377,0.377,0,0,1,.042.116c0.007,0.043.017,0.084,0.028,0.135a0.664,0.664,0,0,1,.02.154,0.444,0.444,0,0,1,.015.14,0.6,0.6,0,0,1-.015.159,0.511,0.511,0,0,1-.031.143,0.371,0.371,0,0,1-.049.147,0.584,0.584,0,0,1-.077.13,1.026,1.026,0,0,1-.118.149c-0.051.039-.108,0.085-0.169,0.131a1.427,1.427,0,0,1-.212.1,0.753,0.753,0,0,1-.261.079H32.562a0.14,0.14,0,0,1,.023.041,4.89,4.89,0,0,0,.662.6A4.025,4.025,0,0,0,34,81.63a3.666,3.666,0,0,0,.843.226,2.929,2.929,0,0,0,.916.039,3.578,3.578,0,0,0,.545-0.064c0.153-.033.315-0.055,0.476-0.105,0.131-.042.259-0.07,0.394-0.121,0.1-.046.187-0.072,0.29-0.126h0a0.111,0.111,0,0,1-.019-0.043,7.624,7.624,0,0,0-.513-0.994,5.1,5.1,0,0,0-.613-0.851A4.2,4.2,0,0,0,35.6,78.91a4.26,4.26,0,0,0-.768-0.47,0.051,0.051,0,0,1-.033-0.012m-0.489-.176a0.034,0.034,0,0,0-.023,0,1.8,1.8,0,0,0-.387-0.1,4.067,4.067,0,0,0-.406-0.063c-0.123-.012-0.254-0.017-0.384-0.017-0.113,0-.232,0-0.351,0H32.755c0.063,0.012.118,0.051,0.177,0.067,0.079,0.024.152,0.075,0.239,0.108a0.69,0.69,0,0,1,.118.013,0.851,0.851,0,0,0,.261.038,1.936,1.936,0,0,0,.372.024,1.3,1.3,0,0,0,.379-0.07h0.012M9.3,77.141l-0.06-.521a0.245,0.245,0,0,0-.059,0,0.778,0.778,0,0,0-.125.012H9.023C8.818,76.6,8.62,76.55,8.415,76.5c-0.258-.061-0.527-0.118-0.778-0.185s-0.5-.131-0.739-0.193a2.775,2.775,0,0,1-.484-0.159H6.4l-0.215.487h0.01c0.084,0.041.176,0.058,0.271,0.1C6.6,76.6,6.714,76.625,6.849,76.67c0.151,0.033.3,0.079,0.445,0.106,0.154,0.046.31,0.092,0.466,0.125H7.774l0,0.008c-0.136.026-.276,0.072-0.4,0.1-0.143.044-.292,0.09-0.433,0.131-0.321.106-.652,0.215-0.967,0.336a9.908,9.908,0,0,0-1.053.492,8.938,8.938,0,0,0-1.065.619,6.193,6.193,0,0,0-.926.783,0.057,0.057,0,0,0-.036.039l0.374,0.374a0.259,0.259,0,0,0,.026-0.033,6.778,6.778,0,0,1,.638-0.55c0.234-.172.481-0.336,0.727-0.482s0.495-.285.752-0.415c0.243-.108.49-0.215,0.744-0.318a0.05,0.05,0,0,0,.031-0.01,0.154,0.154,0,0,1-.01.018,3.649,3.649,0,0,0-.135.419c-0.051.169-.1,0.352-0.131,0.528-0.028.193-.072,0.4-0.1,0.6-0.036.222-.063,0.432-0.087,0.671v0.017L6.26,80.272c0-.017,0-0.039,0-0.051a9.934,9.934,0,0,1,.184-1.2,4.709,4.709,0,0,1,.205-0.784,2.181,2.181,0,0,1,.186-0.39A0.651,0.651,0,0,1,6.946,77.7a0.073,0.073,0,0,0,.041-0.021c0.29-.08.578-0.167,0.875-0.239,0.246-.067.5-0.126,0.742-0.176,0.169-.023.336-0.062,0.505-0.084A0.967,0.967,0,0,0,9.3,77.141M0.9,79.881A0.32,0.32,0,0,0,.928,79.84a9.2,9.2,0,0,1,.584-0.918,10.418,10.418,0,0,1,.681-0.84,7.264,7.264,0,0,1,.732-0.728,6.334,6.334,0,0,1,.785-0.606,6.653,6.653,0,0,1,.7-0.419c0.244-.125.483-0.229,0.73-0.334s0.509-.172.778-0.246A5.456,5.456,0,0,1,6.714,75.6a6.573,6.573,0,0,1,1.108-.075,7.1,7.1,0,0,1,.94.053c0.244,0.033.486,0.077,0.725,0.123,0.145,0.033.292,0.074,0.427,0.108a0.022,0.022,0,0,0,.015.017,0,0,0,0,0,0,0,1.247,1.247,0,0,0-.169.272,3.236,3.236,0,0,0-.148.319,3.161,3.161,0,0,0-.107.373,2.229,2.229,0,0,0-.036.38,0.761,0.761,0,0,0,.008.131c0,0.051.01,0.1,0.017,0.142a0.463,0.463,0,0,0,.034.13,0.764,0.764,0,0,0,.051.126,2.6,2.6,0,0,0,.171.285,1.246,1.246,0,0,0,.215.243,2.88,2.88,0,0,0,.273.2c0.1,0.062.211,0.1,0.324,0.166-0.01.018-.023,0.027-0.039,0.051a7.528,7.528,0,0,1-.55.771,4.724,4.724,0,0,1-.684.663,5.867,5.867,0,0,1-.747.528,4.887,4.887,0,0,1-.834.351,4.255,4.255,0,0,1-.742.2c-0.253.029-.514,0.087-0.78,0.092s-0.556,0-.831,0a7.535,7.535,0,0,1-.878-0.116A8.355,8.355,0,0,1,3.3,80.856c-0.348-.1-0.689-0.219-1.027-0.344C2,80.4,1.73,80.284,1.449,80.164,1.28,80.079,1.092,80,.915,79.891A0.016,0.016,0,0,1,.9,79.881M19.5,68.126a0.776,0.776,0,0,0-.136.164,1.8,1.8,0,0,0-.128.181s0,0,0,.012a0.015,0.015,0,0,0-.018-0.012c-0.261-.249-0.517-0.483-0.78-0.726-0.218-.2-0.435-0.374-0.643-0.586a12.343,12.343,0,0,1-.88-0.948c-0.294-.344-0.58-0.68-0.841-1.044-0.284-.367-0.545-0.742-0.793-1.116-0.253-.393-0.507-0.779-0.724-1.182-0.111-.2-0.225-0.407-0.331-0.624s-0.215-.4-0.312-0.612c-0.092-.193-0.193-0.408-0.28-0.6s-0.17-.382-0.249-0.575c-0.058-.141-0.128-0.3-0.177-0.436-0.142-.34-0.268-0.691-0.386-1.039-0.1-.295-0.191-0.6-0.273-0.9-0.063-.215-0.119-0.441-0.177-0.658a2.569,2.569,0,0,1-.087-0.4,1.367,1.367,0,0,1,0-.238,3.174,3.174,0,0,1,.013-0.362c0.014-.133.038-0.239,0.058-0.347s0.068-.21.108-0.318a1.588,1.588,0,0,1,.145-0.294c0.059-.084.114-0.171,0.172-0.272,0.058-.08.121-0.159,0.189-0.251a2.624,2.624,0,0,1,.194-0.237c0.065-.087.137-0.176,0.2-0.256,0.1-.13.22-0.251,0.327-0.385A4.531,4.531,0,0,0,14,53.633a3.213,3.213,0,0,0,.271-0.47,3.464,3.464,0,0,0,.218-0.477c0.043-.118.077-0.215,0.111-0.323a1.172,1.172,0,0,1,.068-0.182V52.175a0.039,0.039,0,0,1,.012.028,5.253,5.253,0,0,1,.374.931,8.675,8.675,0,0,1,.235,1.027,8.6,8.6,0,0,1,.118,1.022c0.017,0.294.034,0.617,0.034,0.924,0,0.2-.01.4-0.018,0.585,0,0.164-.01.311-0.019,0.465-0.015.123-.022,0.232-0.037,0.345,0,0.074-.009.13-0.012,0.176-0.017.075-.046,0.131-0.062,0.2a2.069,2.069,0,0,0-.085.342c-0.033.159-.069,0.316-0.1,0.475a5.808,5.808,0,0,0-.082.6,1.549,1.549,0,0,0-.012.181,1.22,1.22,0,0,0-.018.21c0,0.075-.01.142-0.01,0.218s-0.007.147-.007,0.219c0,0.221.017,0.444,0.034,0.654a6.035,6.035,0,0,0,.091.732,7.16,7.16,0,0,0,.155.776,7.017,7.017,0,0,0,.258.81,8.373,8.373,0,0,0,.353.773c0.143,0.277.307,0.537,0.481,0.806,0.186,0.289.389,0.549,0.6,0.827,0.23,0.289.474,0.573,0.73,0.846a17.225,17.225,0,0,0,1.341,1.333c0.079,0.075.164,0.147,0.243,0.222s0.159,0.13.237,0.2a0.029,0.029,0,0,0,.008.008l0,0.017M0.012,71.711A0.15,0.15,0,0,1,.051,71.66a6.417,6.417,0,0,1,1.078-.955,6.122,6.122,0,0,1,1.3-.68,6.177,6.177,0,0,1,1.461-.331,6.615,6.615,0,0,1,1.631,0,10.213,10.213,0,0,1,1.379.229,10.746,10.746,0,0,1,1.259.362c0.379,0.126.744,0.28,1.1,0.432,0.283,0.118.566,0.251,0.841,0.385a0.149,0.149,0,0,0,.031.022v0.013c-0.008.023-.013,0.051-0.024,0.084a0.892,0.892,0,0,0-.01.1c0,0.016,0,.05,0,0.077a0.626,0.626,0,0,0-.007.115,2.244,2.244,0,0,0,.046.408,2.557,2.557,0,0,0,.151.424,3.192,3.192,0,0,0,.251.432c0.11,0.141.211,0.284,0.329,0.41a0.111,0.111,0,0,0,.017.022H10.855c-0.411.051-.819,0.108-1.223,0.154-0.348.046-.693,0.09-1.039,0.123L8.579,73.5v-1.01c-0.106.058-.2,0.126-0.307,0.193-0.222.125-.44,0.251-0.676,0.381s-0.466.273-.7,0.419c-0.138.075-.274,0.143-0.4,0.222v0.012H6.486C6.2,73.64,5.924,73.565,5.646,73.5l-1.08-.265c-0.007,0-.015-0.008-0.024-0.008a0.009,0.009,0,0,0,.009-0.009c0.085-.126.162-0.257,0.244-0.377,0.095-.152.191-0.3,0.292-0.437,0.072-.135.154-0.26,0.234-0.38a1.689,1.689,0,0,1,.1-0.159L5.05,71.506c-0.114.067-.237,0.147-0.348,0.221-0.261.172-.517,0.328-0.771,0.495-0.281.193-.55,0.374-0.826,0.55-0.154.1-.307,0.215-0.466,0.3,0,0,0,0,0,.017,0-.017,0-0.017-0.013-0.017-0.4-.21-0.806-0.41-1.205-0.637C0.95,72.193.488,71.96,0.026,71.716a0.017,0.017,0,0,0-.014,0m55.465,3.966h0a0.026,0.026,0,0,0-.01.022,0.116,0.116,0,0,1,0,.033c-0.022.1-.048,0.183-0.068,0.285-0.017.041-.034,0.125-0.059,0.18a2.242,2.242,0,0,1-.415.712,4.753,4.753,0,0,1-.534.6,4.537,4.537,0,0,1-.676.47,5.289,5.289,0,0,1-.809.364,9.429,9.429,0,0,1-2.022.5,14.566,14.566,0,0,1-2.092.183c-0.717.021-1.438-.008-2.155-0.051s-1.4-.121-2.109-0.193c-0.2-.019-0.392-0.041-0.58-0.053-0.08-.01-0.159-0.022-0.249-0.034H43.688a0,0,0,0,0,0,0h0.012c0.2,0,.392,0,0.584,0,0.3,0,.6,0,0.9-0.021,0.384-.012.778-0.041,1.154-0.067,0.454-.054.919-0.1,1.37-0.172,0.358-.058.711-0.118,1.068-0.188a9.51,9.51,0,0,0,1.039-.231c0.33-.075.678-0.159,1-0.255s0.662-.2.981-0.318,0.657-.244.983-0.381,0.637-.253.944-0.412,0.6-.3.906-0.466c0.271-.149.546-0.323,0.814-0.5,0.015,0,.02-0.013.034-0.013m0.207,3.672v0.017c-0.007,0-.012,0-0.012.017a0.043,0.043,0,0,0,0,.021c-0.046.085-.092,0.188-0.128,0.26s-0.056.113-.08,0.167a2.092,2.092,0,0,1-.555.612,4.549,4.549,0,0,1-.643.5,5.194,5.194,0,0,1-.749.328,6.529,6.529,0,0,1-.862.21,10.028,10.028,0,0,1-2.03.1,15.869,15.869,0,0,1-2.027-.2c-0.681-.123-1.374-0.264-2.05-0.441-0.655-.184-1.315-0.357-1.974-0.569a0.182,0.182,0,0,1-.082-0.022,0.213,0.213,0,0,0-.01-0.062,0.115,0.115,0,0,0,0-.038l0-.018a0.121,0.121,0,0,0,.07.023c0.662,0.113,1.318.187,1.988,0.256a24.012,24.012,0,0,0,2.726.079,21.772,21.772,0,0,0,3.135-.306,16.488,16.488,0,0,0,3.17-.88,1.139,1.139,0,0,0,.128-0.056M54.559,72h0v0.022a2.027,2.027,0,0,0-.028.313,1.82,1.82,0,0,0-.029.193,2.39,2.39,0,0,1-.3.772,4.089,4.089,0,0,1-.453.67,4.626,4.626,0,0,1-.577.583,5.743,5.743,0,0,1-.747.478,4.4,4.4,0,0,1-.489.244c-0.174.079-.343,0.164-0.512,0.231-0.186.07-.362,0.138-0.555,0.2-0.174.062-.37,0.126-0.558,0.181a0.1,0.1,0,0,1-.029.008c0-.008,0-0.008,0-0.008a2.664,2.664,0,0,0-.187-0.2,2.2,2.2,0,0,0-.193-0.2c-0.061-.058-0.133-0.126-0.2-0.181s-0.136-.125-0.2-0.176L49.49,75.12a0.461,0.461,0,0,1,.069-0.017c0.453-.2.905-0.419,1.355-0.634,0.448-.246.894-0.482,1.315-0.75s0.831-.532,1.223-0.822c0.369-.272.71-0.552,1.062-0.858A0.205,0.205,0,0,0,54.559,72M45.971,77.64H45.958c-0.371.041-.747,0.084-1.133,0.136-0.287.044-.584,0.08-0.882,0.114H43.931c-0.135-.121-0.261-0.239-0.4-0.365-0.238-.2-0.474-0.419-0.715-0.629s-0.454-.415-0.694-0.629A3.823,3.823,0,0,1,41.807,76c0.022,0.062.046,0.151,0.073,0.231,0.046,0.171.1,0.34,0.152,0.506,0.054,0.2.114,0.4,0.172,0.606,0.046,0.136.092,0.3,0.13,0.448a0.02,0.02,0,0,1,.01.013,0.091,0.091,0,0,1-.043-0.013,7.021,7.021,0,0,0-1-.339c-0.362-.092-0.732-0.152-1.1-0.227-0.364-.046-0.729-0.1-1.1-0.125-0.333-.046-0.678-0.072-1.01-0.1-0.222-.012-0.432-0.029-0.652-0.058-0.095-.01-0.205-0.01-0.3-0.026-0.125-.013-0.261-0.029-0.4-0.041,0.07,0,.133-0.023.184-0.023a0.742,0.742,0,0,1,.177-0.033,0.729,0.729,0,0,1,.179-0.041c0.087-.022.164-0.046,0.253-0.075a6.4,6.4,0,0,0,.619-0.215,5.268,5.268,0,0,0,.614-0.294c0.22-.13.413-0.251,0.606-0.38a6.7,6.7,0,0,0,.578-0.437c0.007-.012.029-0.016,0.029-0.023a0.169,0.169,0,0,0,.043,0c0.348-.136.715-0.268,1.07-0.381,0.423-.13.858-0.255,1.295-0.357,0.459-.1.928-0.187,1.406-0.248a9.684,9.684,0,0,1,1.454-.087,6.339,6.339,0,0,1,1.467.147A4.909,4.909,0,0,1,48,74.831a4.656,4.656,0,0,1,1.113.653,5.224,5.224,0,0,1,.882.88,0.084,0.084,0,0,0,.041.043H50.012c-0.4.213-.793,0.415-1.183,0.637-0.353.171-.711,0.357-1.061,0.54h-0.01a0.008,0.008,0,0,1-.008-0.008c-0.137-.105-0.27-0.21-0.41-0.311-0.23-.171-0.452-0.356-0.678-0.54-0.215-.159-0.433-0.319-0.638-0.492-0.1-.069-0.186-0.138-0.3-0.216l-0.391.339a1.265,1.265,0,0,0,.068.138c0.061,0.118.113,0.232,0.172,0.329,0.072,0.159.135,0.3,0.21,0.426,0.058,0.126.123,0.26,0.181,0.369a0.085,0.085,0,0,0,0,.022m-5.586-3.012c0-.007.018-0.007,0.023-0.007,0.149-.046.3-0.109,0.456-0.152a4.5,4.5,0,0,0,.5-0.159c0.181-.041.355-0.087,0.531-0.138a5.384,5.384,0,0,1,.537-0.113,0.037,0.037,0,0,0,.013,0,0.058,0.058,0,0,1,.019-0.024c0.208-.13.4-0.272,0.607-0.408,0.222-.159.44-0.323,0.66-0.487,0.227-.183.453-0.364,0.676-0.552s0.425-.391.64-0.583c0.2-.181.379-0.365,0.565-0.567s0.353-.393.52-0.6a6.378,6.378,0,0,0,.56-0.748,6.129,6.129,0,0,0,.471-0.754,8.289,8.289,0,0,0,.37-0.755c0.1-.239.181-0.482,0.256-0.737a0.03,0.03,0,0,0,.012-0.024l-0.527-.157c0,0.017,0,.017,0,0.034a4.732,4.732,0,0,1-.244.68,6.03,6.03,0,0,1-.346.716,6.686,6.686,0,0,1-.427.7c-0.169.239-.343,0.478-0.537,0.712-0.154.192-.322,0.379-0.488,0.562s-0.367.374-.551,0.549c-0.2.193-.409,0.369-0.609,0.55-0.222.192-.437,0.369-0.665,0.539-0.205.16-.422,0.336-0.632,0.475-0.208.155-.411,0.285-0.614,0.415-0.186.12-.358,0.238-0.546,0.347-0.164.089-.323,0.185-0.481,0.282-0.179.108-.36,0.2-0.541,0.289a0.622,0.622,0,0,1-.206.116m-7.02-3.889s0.01,0,.012-0.017a2.075,2.075,0,0,0,.261-0.136c0.1-.051.187-0.1,0.285-0.147h0.01c0-.007,0-0.012.012-0.023,0.085-.119.164-0.232,0.244-0.335,0.089-.123.169-0.22,0.266-0.34a3,3,0,0,1,.253-0.294c0.092-.1.169-0.188,0.254-0.272a5.574,5.574,0,0,1,.8-0.647,4.036,4.036,0,0,1,.806-0.46,8.486,8.486,0,0,1,.853-0.336c0.307-.108.63-0.185,0.939-0.272,0.151-.051.3-0.08,0.45-0.135a3.049,3.049,0,0,0,.459-0.16c0.154-.046.3-0.1,0.454-0.164s0.294-.12.44-0.2a3.879,3.879,0,0,0,.43-0.2c0.147-.069.294-0.154,0.435-0.228s0.282-.16.417-0.244a2.427,2.427,0,0,0,.409-0.26,0.039,0.039,0,0,0,.029-0.012c0.007,0,.012,0,0.017-0.029a0.036,0.036,0,0,0,.024-0.017,0.042,0.042,0,0,1,.021-0.022h-0.64a1.869,1.869,0,0,1-.346-0.021,1.541,1.541,0,0,1-.292-0.07c-0.1-.038-0.189-0.079-0.285-0.123s-0.181-.115-0.278-0.166a0.3,0.3,0,0,0-.159-0.067,0.354,0.354,0,0,0-.162-0.063,0.806,0.806,0,0,0-.191-0.028c-0.062,0-.13-0.022-0.2-0.022a1.916,1.916,0,0,0-.3-0.012,1.574,1.574,0,0,0-.238.012,1.138,1.138,0,0,0-.164.029,0.233,0.233,0,0,0-.1.051c-0.232.152-.476,0.328-0.7,0.494-0.437.339-.853,0.7-1.256,1.083a21.795,21.795,0,0,0-3.2,3.756,0.545,0.545,0,0,0-.067.1M15.52,74.751c0.012,0,.02,0,0.036,0h0.15a0.308,0.308,0,0,1,.146.029c0.079,0,.174.01,0.253,0.01a2.031,2.031,0,0,0,.377,0,0.885,0.885,0,0,0,.394-0.136,0.843,0.843,0,0,0,.369-0.284,0.573,0.573,0,0,0,.08-0.135c0.028-.058.038-0.1,0.063-0.147s0.024-.1.034-0.149a1.1,1.1,0,0,1,.031-0.152,1.176,1.176,0,0,1,.036-0.175,0.887,0.887,0,0,1,.038-0.138,0.659,0.659,0,0,1,.046-0.084,0.1,0.1,0,0,1,.056-0.051h0.008a0.18,0.18,0,0,1,.041.067c0.017,0.029.033,0.051,0.05,0.079a0.6,0.6,0,0,0,.046.1,0.461,0.461,0,0,0,.032.087c0.033,0.08.063,0.142,0.087,0.214,0.041,0.08.074,0.131,0.108,0.2a0.607,0.607,0,0,0,.148.164,0.449,0.449,0,0,0,.188.114,0.744,0.744,0,0,0,.266.028,0.857,0.857,0,0,0,.28-0.058c0.09-.039.181-0.077,0.264-0.123s0.161-.087.251-0.131A0.826,0.826,0,0,1,19.528,74a0.626,0.626,0,0,0,.116-0.062,0.193,0.193,0,0,0,.084-0.041,1.06,1.06,0,0,0,.172-0.068,0.434,0.434,0,0,1,.145-0.051,0.344,0.344,0,0,0,.095-0.033h0.069c-0.007.01-.031,0.033-0.048,0.051a0.551,0.551,0,0,1-.08.084,0.526,0.526,0,0,1-.135.108c-0.054.039-.108,0.092-0.179,0.136a0.139,0.139,0,0,1-.067.036c-0.068.06-.123,0.123-0.182,0.185a0.9,0.9,0,0,0-.143.188,0.856,0.856,0,0,0-.084.21,0.89,0.89,0,0,0-.036.255,1.414,1.414,0,0,0,.024.232,2.222,2.222,0,0,0,.087.226,0.71,0.71,0,0,0,.136.2,1.425,1.425,0,0,0,.176.177c0.068,0.062.148,0.13,0.223,0.2,0.046,0.058.1,0.108,0.15,0.164a0.457,0.457,0,0,1,.08.121,0.381,0.381,0,0,1,.043.089V76.42s0,0,0,.007v0.017h0c0,0.01-.012.01-0.019,0.01a0.056,0.056,0,0,1-.043.017,0.162,0.162,0,0,1-.065.016,0.37,0.37,0,0,1-.077,0A0.51,0.51,0,0,1,19.8,76.42a0.825,0.825,0,0,1-.181-0.063,0.955,0.955,0,0,1-.164-0.1c-0.051-.034-0.1-0.073-0.148-0.1a0.464,0.464,0,0,0-.14-0.067,0.4,0.4,0,0,0-.179-0.046,2,2,0,0,0-.21-0.013,1.789,1.789,0,0,0-.269.017,0.446,0.446,0,0,0-.183.041,0.592,0.592,0,0,0-.162.05c-0.058.017-.108,0.046-0.159,0.063a1.374,1.374,0,0,0-.133.1,0.739,0.739,0,0,1-.087.062,0.224,0.224,0,0,1-.071.062,0.33,0.33,0,0,1-.062.077,0.313,0.313,0,0,1-.051.063c-0.034.045-.056,0.058-0.08,0.087a0.331,0.331,0,0,1-.068.072,1.248,1.248,0,0,1-.284.226,1.554,1.554,0,0,1-.29.188,0.808,0.808,0,0,1-.273.125,0.535,0.535,0,0,1-.2.051H16.4V77.3a0.054,0.054,0,0,0,.02-0.039,0.231,0.231,0,0,0,.031-0.062c0.015-.021.029-0.041,0.046-0.067s0.027-.057.041-0.087a0.14,0.14,0,0,0,.049-0.055,0.6,0.6,0,0,1,.082-0.125c0.038-.056.072-0.119,0.113-0.188a1.623,1.623,0,0,0,.108-0.21,0.887,0.887,0,0,0,.09-0.237A1.122,1.122,0,0,0,17.005,76a0.712,0.712,0,0,0-.01-0.15,0.551,0.551,0,0,0-.12-0.26,0.968,0.968,0,0,0-.21-0.176c-0.072-.039-0.159-0.062-0.236-0.1a1.453,1.453,0,0,0-.238-0.062,0.366,0.366,0,0,1-.113-0.022,0.892,0.892,0,0,1-.1-0.022,1.063,1.063,0,0,1-.164-0.087,1.029,1.029,0,0,1-.152-0.1,1.265,1.265,0,0,1-.1-0.118,0.21,0.21,0,0,1-.041-0.125,0.045,0.045,0,0,1,0-.029"/>
</svg>
